…
> Much of this first plot explanation comes from Hadley Wickham's [R for Data Science](https://r4ds.had.co.nz/data-visualisation.html?q=aes#data-visualisation), with edits to fit the lesson here.

To explore how `ggplot` works, we're going to work with some data that already comes with `tidyverse`. Let's take a look at it now.

1. Start a new section "First plot" and add a code chunk.
2. Add the code below and run it to see what the `mpg` dataset looks like.


```r
mpg
```

```
## # A tibble: 234 x 11
##    manufacturer model      displ  year   cyl trans drv     cty   hwy fl    class
##    <chr>        <chr>      <dbl> <int> <int> <chr> <chr> <int> <int> <chr> <chr>
##  1 audi         a4           1.8  1999     4 auto~ f        18    29 p     comp~
##  2 audi         a4           1.8  1999     4 manu~ f        21    29 p     comp~
##  3 audi         a4           2    2008     4 manu~ f        20    31 p     comp~
##  4 audi         a4           2    2008     4 auto~ f        21    30 p     comp~
##  5 audi         a4           2.8  1999     6 auto~ f        16    26 p     comp~
##  6 audi         a4           2.8  1999     6 manu~ f        18    26 p     comp~
##  7 audi         a4           3.1  2008     6 auto~ f        18    27 p     comp~
##  8 audi         a4 quattro   1.8  1999     4 manu~ 4        18    26 p     comp~
##  9 audi         a4 quattro   1.8  1999     4 auto~ 4        16    25 p     comp~
## 10 audi         a4 quattro   2    2008     4 manu~ 4        20    28 p     comp~
## # ... with 224 more rows
```
…
```
## 
## i Use `spec()` to retrieve the full column specification for this data.
## i Specify the column types or set `show_col_types = FALSE` to quiet this message.
```

```r
# peek at the data
class
```

```
## # A tibble: 28 x 3
##    Name    Princess                      `Ice cream`      
##    <chr>   <chr>                         <chr>            
##  1 Katy    Belle (Beauty and the Beast)  Cookies and Cream
##  2 Ana     Belle (Beauty and the Beast)  Cookie Dough     
##  3 Marissa Tiana (Princess and the Frog) Cookie Dough     
##  4 Jessie  Pocahontas                    Strawberry       
##  5 José    Ariel (Little Mermaid)        Cookies and Cream
##  6 Claire  Ariel (Little Mermaid)        Coffee/Jamoca    
##  7 Payne   Snow White                    Cookie Dough     
##  8 Caro    Belle (Beauty and the Beast)  Cookie Dough     
##  9 Vicente Rapunzel (Tangled)            Coffee/Jamoca    
## 10 Bryan   Jasmine (Aladdin)             Cookie Dough     
## # ... with 18 more rows
```
…
