…
```r
# printing the tibble
leso
```

```
## # A tibble: 117,518 × 12
##    sheet state agency_name      nsn   item_name quantity ui    acquisition_value
##    <dbl> <chr> <chr>            <chr> <chr>        <dbl> <chr>             <dbl>
##  1     1 AL    ABBEVILLE POLIC… 2540… BALLISTI…       10 Kit              15872.
##  2     1 AL    ABBEVILLE POLIC… 6760… CAMERA R…        1 Each              1500 
##  3     1 AL    ABBEVILLE POLIC… 5855… ILLUMINA…       10 Each              1128 
##  4     1 AL    ABBEVILLE POLIC… 1385… UNMANNED…        1 Each             10000 
##  5     1 AL    ABBEVILLE POLIC… 1240… OPTICAL …        1 Each               246.
##  6     1 AL    ABBEVILLE POLIC… 2355… MINE RES…        1 Each            658000 
##  7     1 AL    ABBEVILLE POLIC… 1240… SIGHT,RE…        9 Each               396 
##  8     1 AL    ABBEVILLE POLIC… 2320… TRUCK,UT…        1 Each             62627 
##  9     1 AL    ABBEVILLE POLIC… 1005… MOUNT,RI…       10 Each              1626 
## 10     1 AL    ABBEVILLE POLIC… 2320… TRUCK,UT…        1 Each             62627 
## # ℹ 117,508 more rows
## # ℹ 4 more variables: demil_code <chr>, demil_ic <dbl>, ship_date <dttm>,
## #   station_type <chr>
```
…
<details>
  <summary>Try this on your own, but the code is here.</summary>


```r
leso_control |> 
  filter(
    state == "TX"
  )
```

```
## # A tibble: 7,817 × 13
##    state agency_name nsn   item_name quantity ui    acquisition_value demil_code
##    <chr> <chr>       <chr> <chr>        <dbl> <chr>             <dbl> <chr>     
##  1 TX    ABERNATHY … 2320… TRUCK,UT…        1 Each              62627 C         
##  2 TX    ABERNATHY … 1240… SIGHT,RE…        5 Each                333 D         
##  3 TX    ABILENE PO… 1005… RIFLE,5.…        1 Each                499 D         
##  4 TX    ABILENE PO… 1005… RIFLE,5.…        1 Each                499 D         
##  5 TX    ABILENE PO… 1005… RIFLE,5.…        1 Each                499 D         
##  6 TX    ABILENE PO… 1005… RIFLE,5.…        1 Each                499 D         
##  7 TX    ABILENE PO… 1005… RIFLE,5.…        1 Each                499 D         
##  8 TX    ABILENE PO… 1005… RIFLE,5.…        1 Each                499 D         
##  9 TX    ABILENE PO… 1005… RIFLE,5.…        1 Each                499 D         
## 10 TX    ABILENE PO… 1005… RIFLE,5.…        1 Each                499 D         
## # ℹ 7,807 more rows
## # ℹ 5 more variables: demil_ic <dbl>, ship_date <dttm>, station_type <chr>,
## #   total_value <dbl>, control_type <lgl>
```
…
```r
leso_filtered <- leso_control |> 
  filter(
    state == "TX",
    ship_date >= "2010-01-01"
  )

leso_filtered
```

```
## # A tibble: 6,698 × 13
##    state agency_name nsn   item_name quantity ui    acquisition_value demil_code
##    <chr> <chr>       <chr> <chr>        <dbl> <chr>             <dbl> <chr>     
##  1 TX    ABERNATHY … 2320… TRUCK,UT…        1 Each              62627 C         
##  2 TX    ABERNATHY … 1240… SIGHT,RE…        5 Each                333 D         
##  3 TX    ALLEN POLI… 1240… SIGHT,RE…        1 Each                396 D         
##  4 TX    ALLEN POLI… 1240… SIGHT,RE…        1 Each                396 D         
##  5 TX    ALLEN POLI… 1240… SIGHT,RE…        1 Each                396 D         
##  6 TX    ALLEN POLI… 1385… MK3MOD0          1 Each             371680 Q         
##  7 TX    ALLEN POLI… 1385… MK3MOD0          1 Each             371680 Q         
##  8 TX    ALLEN POLI… 2355… MINE RES…        1 Each             658000 C         
##  9 TX    ALLEN POLI… 1240… SIGHT,RE…        1 Each                396 D         
## 10 TX    ALLEN POLI… 1240… SIGHT,RE…        1 Each                396 D         
## # ℹ 6,688 more rows
## # ℹ 5 more variables: demil_ic <dbl>, ship_date <dttm>, station_type <chr>,
## #   total_value <dbl>, control_type <lgl>
```
…
