…
Here is a weird thing about [`group_by()`](https://dplyr.tidyverse.org/reference/group_by.html): It is always followed by another function. It really just pre-sorts data into groups so that whatever function is applied after happens within each individual group.

If add a `group_by()` on our performers before our summarize function, it will put all of the "Aerosmith" rows together, then all the "Bad Company" rows together, etc. and then we count the rows _within_ those groups.
 
1. Modify your code block to add the group_by:


```r
hot100 %>%
  group_by(performer) %>% 
  summarize(appearances = n())
```

```
## # A tibble: 10,061 × 2
##    performer                            appearances
##    <chr>                                      <int>
##  1 "? (Question Mark) & The Mysterians"          33
##  2 "'N Sync"                                    172
##  3 "'N Sync & Gloria Estefan"                    20
##  4 "'N Sync Featuring Nelly"                     20
##  5 "'Til Tuesday"                                53
##  6 "\"Groove\" Holmes"                           14
##  7 "\"Little\" Jimmy Dickens"                    10
##  8 "\"Pookie\" Hudson"                            1
##  9 "\"Weird Al\" Yankovic"                       91
## 10 "(+44)"                                        1
## # … with 10,051 more rows
```
…
Remember in our import notebook when we had to sort the songs by date. We'll use the same `arrange()` function here, but we'll change the result to **desc**ending order, because journalists almost always want to know the _most_ of something.

1. Add the pipe and arrange function below and run it, then I'll explain.


```r
hot100 %>%
  group_by(performer) %>% 
  summarize(appearances = n()) %>% 
  arrange(appearances %>% desc())
```

```
## # A tibble: 10,061 × 2
##    performer     appearances
##    <chr>               <int>
##  1 Taylor Swift         1022
##  2 Elton John            889
##  3 Madonna               857
##  4 Kenny Chesney         758
##  5 Drake                 746
##  6 Tim McGraw            731
##  7 Keith Urban           673
##  8 Stevie Wonder         659
##  9 Rod Stewart           657
## 10 Mariah Carey          621
## # … with 10,051 more rows
```
…
```r
hot100 %>% # start with the data, and then ...
  group_by(performer, song) %>% # group by performer and song, and then ..
  summarize(appearances = n()) %>% # name the column, then fill it with the number of rows ...
  arrange(appearances %>% desc()) # arrange by appearances in descending order
```

```
## `summarise()` has grouped output by 'performer'. You can override using the `.groups` argument.
```

```
## # A tibble: 29,389 × 3
## # Groups:   performer [10,061]
##    performer                                 song                    appearances
##    <chr>                                     <chr>                         <int>
##  1 Imagine Dragons                           Radioactive                      87
##  2 AWOLNATION                                Sail                             79
##  3 Jason Mraz                                I'm Yours                        76
##  4 The Weeknd                                Blinding Lights                  76
##  5 LeAnn Rimes                               How Do I Live                    69
##  6 LMFAO Featuring Lauren Bennett & GoonRock Party Rock Anthem                68
##  7 OneRepublic                               Counting Stars                   68
##  8 Adele                                     Rolling In The Deep              65
##  9 Jewel                                     Foolish Games/You Were…          65
## 10 Carrie Underwood                          Before He Cheats                 64
## # … with 29,379 more rows
```
…
So let's step through this with code: 

1. Create a section with a headline, text and code chunk
2. Start with the `hot100` data and then pipe into `filter()`.
1. Within the filter, set the `week_position` to be `==` to `1`.
1. Run the result and check it


```r
hot100 %>% 
  filter(week_position == 1)
```

```
## # A tibble: 3,279 × 7
##    week_id    week_position song      performer   previous_week_p… peak_position
##    <date>             <dbl> <chr>     <chr>                  <dbl>         <dbl>
##  1 1958-08-02             1 Poor Lit… Ricky Nels…               NA             1
##  2 1958-08-09             1 Poor Lit… Ricky Nels…                1             1
##  3 1958-08-16             1 Nel Blu … Domenico M…                2             1
##  4 1958-08-23             1 Little S… The Elegan…                2             1
##  5 1958-08-30             1 Nel Blu … Domenico M…                2             1
##  6 1958-09-06             1 Nel Blu … Domenico M…                1             1
##  7 1958-09-13             1 Nel Blu … Domenico M…                1             1
##  8 1958-09-20             1 Nel Blu … Domenico M…                1             1
##  9 1958-09-27             1 It's All… Tommy Edwa…                3             1
## 10 1958-10-04             1 It's All… Tommy Edwa…                1             1
## # … with 3,269 more rows, and 1 more variable: weeks_on_chart <dbl>
```
…
```r
hot100 %>%
  filter(week_position == 1) %>% 
  group_by(performer, song) %>%
  summarize(appearances = n())
```

```
## `summarise()` has grouped output by 'performer'. You can override using the `.groups` argument.
```

```
## # A tibble: 1,124 × 3
## # Groups:   performer [744]
##    performer                          song                             appearances
##    <chr>                              <chr>                                  <int>
##  1 ? (Question Mark) & The Mysterians 96 Tears                                   1
##  2 'N Sync                            It's Gonna Be Me                           2
##  3 24kGoldn Featuring iann dior       Mood                                       8
##  4 2Pac Featuring K-Ci And JoJo       How Do U Want It/California Love           2
##  5 50 Cent                            In Da Club                                 9
##  6 50 Cent Featuring Nate Dogg        21 Questions                               4
##  7 50 Cent Featuring Olivia           Candy Shop                                 9
##  8 6ix9ine & Nicki Minaj              Trollz                                     1
##  9 A Taste Of Honey                   Boogie Oogie Oogie                         3
## 10 a-ha                               Take On Me                                 1
## # … with 1,114 more rows
```
…
```r
hot100 %>%
  filter(week_position == 1) %>% 
  group_by(performer, song) %>%
  summarize(appearances = n()) %>%
  arrange(appearances %>% desc())
```

```
## `summarise()` has grouped output by 'performer'. You can override using the `.groups` argument.
```

```
## # A tibble: 1,124 × 3
## # Groups:   performer [744]
##    performer                                         song            appearances
##    <chr>                                             <chr>                 <int>
##  1 Lil Nas X Featuring Billy Ray Cyrus               Old Town Road            19
##  2 Luis Fonsi & Daddy Yankee Featuring Justin Bieber Despacito                16
##  3 Mariah Carey & Boyz II Men                        One Sweet Day            16
##  4 Boyz II Men                                       I'll Make Love…          14
##  5 Elton John                                        Candle In The …          14
##  6 Los Del Rio                                       Macarena (Bays…          14
##  7 Mariah Carey                                      We Belong Toge…          14
##  8 Mark Ronson Featuring Bruno Mars                  Uptown Funk!             14
##  9 The Black Eyed Peas                               I Gotta Feeling          14
## 10 Whitney Houston                                   I Will Always …          14
## # … with 1,114 more rows
```
…
Let's start by getting the No. 1 songs. You've did this in the last quest.

1. Create a new section with a headline, text and code chunk.
1. Start with the `hot100` data and filter it so you only have `week_position` of 1.

<detail>
  <summary>Try on your own. You got this!</summary.

```r
hot100 %>% 
  filter(week_position == 1)
```

```
## # A tibble: 3,279 × 7
##    week_id    week_position song      performer   previous_week_p… peak_position
##    <date>             <dbl> <chr>     <chr>                  <dbl>         <dbl>
##  1 1958-08-02             1 Poor Lit… Ricky Nels…               NA             1
##  2 1958-08-09             1 Poor Lit… Ricky Nels…                1             1
##  3 1958-08-16             1 Nel Blu … Domenico M…                2             1
##  4 1958-08-23             1 Little S… The Elegan…                2             1
##  5 1958-08-30             1 Nel Blu … Domenico M…                2             1
##  6 1958-09-06             1 Nel Blu … Domenico M…                1             1
##  7 1958-09-13             1 Nel Blu … Domenico M…                1             1
##  8 1958-09-20             1 Nel Blu … Domenico M…                1             1
##  9 1958-09-27             1 It's All… Tommy Edwa…                3             1
## 10 1958-10-04             1 It's All… Tommy Edwa…                1             1
## # … with 3,269 more rows, and 1 more variable: weeks_on_chart <dbl>
```
…
Our next challenge in our logic is to show only unique performer/song combinations. We do this with [`distinct()`](https://dplyr.tidyverse.org/reference/distinct.html).

We feed the `distinct()` function with the variables we want to consider together, in our case the `perfomer` and `song`. All other columns are dropped since including them would mess up their distinctness.

1. Add the distinct() function to your code chunk.


```r
hot100 %>% 
  filter(week_position == 1) %>% 
  distinct(song, performer)
```

```
## # A tibble: 1,124 × 2
##    song                            performer                       
##    <chr>                           <chr>                           
##  1 Poor Little Fool                Ricky Nelson                    
##  2 Nel Blu Dipinto Di Blu (Volaré) Domenico Modugno                
##  3 Little Star                     The Elegants                    
##  4 It's All In The Game            Tommy Edwards                   
##  5 It's Only Make Believe          Conway Twitty                   
##  6 Tom Dooley                      The Kingston Trio               
##  7 To Know Him, Is To Love Him     The Teddy Bears                 
##  8 The Chipmunk Song               The Chipmunks With David Seville
##  9 Smoke Gets In Your Eyes         The Platters                    
## 10 Stagger Lee                     Lloyd Price                     
## # … with 1,114 more rows
```
…
<detail>
  <summary>You've done this. Give it ago!</summary>

```r
hot100 %>% 
  filter(week_position == 1) %>%
  distinct(song, performer) %>%
  group_by(performer) %>%
  summarize(no1_hits = n()) %>%
  arrange(no1_hits %>% desc())
```

```
## # A tibble: 744 × 2
##    performer          no1_hits
##    <chr>                 <int>
##  1 The Beatles              19
##  2 Mariah Carey             16
##  3 Madonna                  12
##  4 Michael Jackson          11
##  5 Whitney Houston          11
##  6 The Supremes             10
##  7 Bee Gees                  9
##  8 The Rolling Stones        8
##  9 Janet Jackson             7
## 10 Stevie Wonder             7
## # … with 734 more rows
```
…
You are going to think I'm a horrible person, but there is an easier way to do this ...

We count stuff in data science (and journalism) all the time. Because of this tidyverse has a shortcut to group and count rows of data. I needed to show you the long way because a) we will use `group_by()` and `summarize()` with other math that isn't just counting rows, and b) you need to understand what is happening when you use `count()`, which is really just using group_by/summarize underneath.

The [`count()`](https://dplyr.tidyverse.org/reference/count.html) function takes the columns you want to group and then does the summarize on `n()` for you:


```r
hot100 %>% 
  count(performer)
```

```
## # A tibble: 10,061 × 2
##    performer                                n
##    <chr>                                <int>
##  1 "? (Question Mark) & The Mysterians"    33
##  2 "'N Sync"                              172
##  3 "'N Sync & Gloria Estefan"              20
##  4 "'N Sync Featuring Nelly"               20
##  5 "'Til Tuesday"                          53
##  6 "\"Groove\" Holmes"                     14
##  7 "\"Little\" Jimmy Dickens"              10
##  8 "\"Pookie\" Hudson"                      1
##  9 "\"Weird Al\" Yankovic"                 91
## 10 "(+44)"                                  1
## # … with 10,051 more rows
```
…
