…
\* At least I think always. I can't think of a reason to use it alone.

If add a `group_by()` on our performers before our summarize function, it will put all of the "ABBA" rows together, and then all the "Bad Company" rows together, etc. and then count the rows _within_ those groups.
 
- Modify your code block to add the group_by:


```r
hot100 %>%
  group_by(performer) %>% 
  summarize(appearances = n())
```

```
## # A tibble: 10,061 × 2
##    performer                            appearances
##    <chr>                                      <int>
##  1 "? (Question Mark) & The Mysterians"          33
##  2 "'N Sync"                                    172
##  3 "'N Sync & Gloria Estefan"                    20
##  4 "'N Sync Featuring Nelly"                     20
##  5 "'Til Tuesday"                                53
##  6 "\"Groove\" Holmes"                           14
##  7 "\"Little\" Jimmy Dickens"                    10
##  8 "\"Pookie\" Hudson"                            1
##  9 "\"Weird Al\" Yankovic"                       91
## 10 "(+44)"                                        1
## # … with 10,051 more rows
```
…
Remember in our last notebook when we had to sorted the data by the date. We'll use the same `arrange()` function here, but we'll change the result to **desc**ending order.

- Add the pipe and arrange function below and run it, then I'll explain.


```r
hot100 %>%
  group_by(performer) %>% 
  summarize(appearances = n()) %>% 
  arrange(appearances %>% desc())
```

```
## # A tibble: 10,061 × 2
##    performer     appearances
##    <chr>               <int>
##  1 Taylor Swift         1022
##  2 Elton John            889
##  3 Madonna               857
##  4 Kenny Chesney         758
##  5 Drake                 746
##  6 Tim McGraw            731
##  7 Keith Urban           673
##  8 Stevie Wonder         659
##  9 Rod Stewart           657
## 10 Mariah Carey          621
## # … with 10,051 more rows
```
…
You are going to think I'm a horrible person, but there is a much easier way to do this ...

You see, we count stuff in data science (and journalism) all the time. Because of this there is a shortcut to group and count rows. I had to show you the long way because a) you need to understand how `count()` works, and b) we will do more `summarize()` with other math that isn't just counting.

The [`count()`](https://dplyr.tidyverse.org/reference/count.html) function takes the columns you want to group and then does the summarize for you:


```r
hot100 %>% 
  count(performer)
```

```
## # A tibble: 10,061 × 2
##    performer                                n
##    <chr>                                <int>
##  1 "? (Question Mark) & The Mysterians"    33
##  2 "'N Sync"                              172
##  3 "'N Sync & Gloria Estefan"              20
##  4 "'N Sync Featuring Nelly"               20
##  5 "'Til Tuesday"                          53
##  6 "\"Groove\" Holmes"                     14
##  7 "\"Little\" Jimmy Dickens"              10
##  8 "\"Pookie\" Hudson"                      1
##  9 "\"Weird Al\" Yankovic"                 91
## 10 "(+44)"                                  1
## # … with 10,051 more rows
```
…
