…
- Add ad header `## Filter fun` to your notebook.
- Add text that you are looking for AISD schools.
- Add a chunk, insert and run the following:

> The first box shown here is the code. The second is the result. The result is prettier in RStudio.


```r
ratings %>% 
  filter(distname == "AUSTIN ISD")
```

```
## # A tibble: 130 x 24
##    campus call_update campname cdalls cflaeatype cflaec cflalted cflchart
##    <chr>        <dbl> <chr>     <int> <chr>      <chr>  <chr>    <chr>   
##  1 22790…          NA AUSTIN …     90 <NA>       N      N        N       
##  2 22790…          NA LANIER …     83 <NA>       N      N        N       
##  3 22790…          NA MCCALLU…     93 <NA>       N      N        N       
##  4 22790…          NA REAGAN …     82 <NA>       N      N        N       
##  5 22790…          NA TRAVIS …     82 <NA>       N      N        N       
##  6 22790…          NA CROCKET…     86 <NA>       N      N        N       
##  7 22790…          NA ANDERSO…     92 <NA>       N      N        N       
##  8 22790…          NA ALTERNA…     NA <NA>       N      N        N       
##  9 22790…          NA BOWIE H…     92 <NA>       N      N        N       
## 10 22790…          NA LBJ HIG…     82 <NA>       N      N        N       
## # … with 120 more rows, and 16 more variables: cfldaep <chr>, cfleek <chr>,
## #   cfljj <chr>, cflnewcamp <chr>, cflrtf <chr>, cntyname <chr>, county <chr>,
## #   c_appeal_decision <chr>, c_rating <chr>, c_yrs_ir <chr>, distname <chr>,
## #   district <chr>, grdhigh <chr>, grdlow <chr>, grdspan <chr>, grdtype <chr>
```
…
