…
```r
# printing the tibble
leso
```

```
## # A tibble: 124,848 × 12
##    sheet state agency_name       nsn   item_name quantity ui    acquisition_val…
##    <dbl> <chr> <chr>             <chr> <chr>        <dbl> <chr>            <dbl>
##  1     1 AL    ABBEVILLE POLICE… 2540… BALLISTI…       10 Kit             15872.
##  2     1 AL    ABBEVILLE POLICE… 1240… OPTICAL …        1 Each              246.
##  3     1 AL    ABBEVILLE POLICE… 1005… MOUNT,RI…       10 Each             1626 
##  4     1 AL    ABBEVILLE POLICE… 1240… SIGHT,RE…        9 Each              333 
##  5     1 AL    ABBEVILLE POLICE… 5855… ILLUMINA…       10 Each              926 
##  6     1 AL    ABBEVILLE POLICE… 2355… MINE RES…        1 Each           658000 
##  7     1 AL    ABBEVILLE POLICE… 2320… TRUCK,UT…        1 Each            62627 
##  8     1 AL    ABBEVILLE POLICE… 1385… UNMANNED…        1 Each            10000 
##  9     1 AL    ABBEVILLE POLICE… 6760… CAMERA R…        1 Each             1500 
## 10     1 AL    ABBEVILLE POLICE… 2320… TRUCK,UT…        1 Each            62627 
## # … with 124,838 more rows, and 4 more variables: demil_code <chr>,
## #   demil_ic <dbl>, ship_date <dttm>, station_type <chr>
```
…
<details>
  <summary>Try this on your own, but the code is here.</summary>


```r
leso_control |> 
  filter(
    state == "TX"
  )
```

```
## # A tibble: 8,663 × 13
##    state agency_name  nsn   item_name quantity ui    acquisition_val… demil_code
##    <chr> <chr>        <chr> <chr>        <dbl> <chr>            <dbl> <chr>     
##  1 TX    ABERNATHY P… 1005… PISTOL,C…        1 Each              58.7 D         
##  2 TX    ABERNATHY P… 1005… PISTOL,C…        1 Each              58.7 D         
##  3 TX    ABERNATHY P… 1005… PISTOL,C…        1 Each              58.7 D         
##  4 TX    ABERNATHY P… 1005… PISTOL,C…        1 Each              58.7 D         
##  5 TX    ABERNATHY P… 1005… RIFLE,5.…        1 Each             749   D         
##  6 TX    ABERNATHY P… 2320… TRUCK,UT…        1 Each           62627   C         
##  7 TX    ABERNATHY P… 1240… SIGHT,RE…        5 Each             333   D         
##  8 TX    ABERNATHY P… 1005… RIFLE,5.…        1 Each             749   D         
##  9 TX    ABERNATHY P… 1005… PISTOL,C…        1 Each              58.7 D         
## 10 TX    ABILENE POL… 1005… RIFLE,5.…        1 Each             499   D         
## # … with 8,653 more rows, and 5 more variables: demil_ic <dbl>,
## #   ship_date <dttm>, station_type <chr>, total_value <dbl>, control_type <lgl>
```
…
```r
leso_filtered <- leso_control |> 
  filter(
    state == "TX",
    ship_date >= "2010-01-01"
  )

leso_filtered
```

```
## # A tibble: 7,411 × 13
##    state agency_name  nsn   item_name quantity ui    acquisition_val… demil_code
##    <chr> <chr>        <chr> <chr>        <dbl> <chr>            <dbl> <chr>     
##  1 TX    ABERNATHY P… 1005… PISTOL,C…        1 Each              58.7 D         
##  2 TX    ABERNATHY P… 1005… PISTOL,C…        1 Each              58.7 D         
##  3 TX    ABERNATHY P… 1005… PISTOL,C…        1 Each              58.7 D         
##  4 TX    ABERNATHY P… 1005… PISTOL,C…        1 Each              58.7 D         
##  5 TX    ABERNATHY P… 1005… RIFLE,5.…        1 Each             749   D         
##  6 TX    ABERNATHY P… 2320… TRUCK,UT…        1 Each           62627   C         
##  7 TX    ABERNATHY P… 1240… SIGHT,RE…        5 Each             333   D         
##  8 TX    ABERNATHY P… 1005… RIFLE,5.…        1 Each             749   D         
##  9 TX    ABERNATHY P… 1005… PISTOL,C…        1 Each              58.7 D         
## 10 TX    ALLEN POLIC… 1240… SIGHT,RE…        1 Each             333   D         
## # … with 7,401 more rows, and 5 more variables: demil_ic <dbl>,
## #   ship_date <dttm>, station_type <chr>, total_value <dbl>, control_type <lgl>
```
…
