…
The `summary()` doesn't do much for us with this data set. The `arrest_date` column is good because we can see the oldest and newest dates. The coordinates are the only true numbers in our data but stats on them don't help us given it is really geographical data. In a later lesson we'll use those to map these records.

- Use `count()` to look at the categorical fields of `arrest_charge`, `apd_race`, and `sex` and `zip`. You might also find `arrange()` useful. We won't deal with the location fields until later.


```r
data %>% count(arrest_charge) %>% 
  arrange(n %>% desc())
```

```
## # A tibble: 155 x 2
##    arrest_charge                    n
##    <chr>                        <int>
##  1 POSS MARIJ < 2OZ              2214
##  2 POSS MARIJ <2OZ               1963
##  3 POSS MARIJUANA <2OZ           1355
##  4 POSS MARIJ <2OZ (MB)           848
##  5 POSSESSION OF MARIJUANA <2OZ   346
##  6 POSS MARIJ                     199
##  7 POSS MARIJUANA                 140
##  8 POSS MARIJ >2OZ<=4OZ            85
##  9 POSS MARIJ >4OZ<=5LBS           82
## 10 POSS MARIJ <= 5LBS > 4OZ        57
## # … with 145 more rows
```
…
```r
data %>% count(zip) %>%
  arrange(n %>% desc())
```

```
## # A tibble: 52 x 2
##    zip       n
##    <chr> <int>
##  1 78753   794
##  2 78758   684
##  3 78741   680
##  4 78701   671
##  5 78702   479
##  6 78723   471
##  7 78744   457
##  8 78745   437
##  9 <NA>    391
## 10 78704   359
## # … with 42 more rows
```
…
