…
1. Add a new section (headline, text and chunk) that describes the first quest: For each agency in Texas, find the summed **quantity** and summed **total value** of the equipment they received.



```r
tx %>% 
  group_by(agency_name) %>% 
  summarize(
    sum_quantity = sum(quantity)
  )
```

```
## # A tibble: 357 × 2
##    agency_name                     sum_quantity
##    <chr>                                  <dbl>
##  1 ABERNATHY POLICE DEPT                     13
##  2 ALLEN POLICE DEPT                         11
##  3 ALVARADO ISD PD                            4
##  4 ALVIN POLICE DEPT                        539
##  5 ANDERSON COUNTY SHERIFFS OFFICE            8
##  6 ANDREWS COUNTY SHERIFF OFFICE             12
##  7 ANSON POLICE DEPT                          9
##  8 ANTHONY POLICE DEPT                       10
##  9 ARANSAS PASS POLICE DEPARTMENT            38
## 10 ARP POLICE DEPARTMENT                     18
## # … with 347 more rows
```
…
1. Add add a comma after the first summarize action.
1. Add the new expression to give us the `sum_total_value`.


```r
tx %>% 
  group_by(agency_name) %>% 
  summarize(
    sum_quantity = sum(quantity),
    sum_total_value = sum(total_value)
  )
```

```
## # A tibble: 357 × 3
##    agency_name                     sum_quantity sum_total_value
##    <chr>                                  <dbl>           <dbl>
##  1 ABERNATHY POLICE DEPT                     13          66084.
##  2 ALLEN POLICE DEPT                         11        1404024 
##  3 ALVARADO ISD PD                            4            480 
##  4 ALVIN POLICE DEPT                        539        2545240.
##  5 ANDERSON COUNTY SHERIFFS OFFICE            8         827891 
##  6 ANDREWS COUNTY SHERIFF OFFICE             12           1476 
##  7 ANSON POLICE DEPT                          9           5077 
##  8 ANTHONY POLICE DEPT                       10           7490 
##  9 ARANSAS PASS POLICE DEPARTMENT            38         571738 
## 10 ARP POLICE DEPARTMENT                     18           5789.
## # … with 347 more rows
```
…
1. EDIT your block to add an `arrange()` function below


```r
tx %>% 
  group_by(agency_name) %>% 
  summarize(
    sum_quantity = sum(quantity),
    sum_total_value = sum(total_value)
  ) %>% 
  arrange(sum_total_value %>% desc())
```

```
## # A tibble: 357 × 3
##    agency_name                       sum_quantity sum_total_value
##    <chr>                                    <dbl>           <dbl>
##  1 HOUSTON POLICE DEPT                       6419       10825708.
##  2 HARRIS COUNTY SHERIFF'S OFFICE             381        3776292.
##  3 DPS SWAT- TEXAS RANGERS                   1730        3520630.
##  4 JEFFERSON COUNTY SHERIFF'S OFFICE          270        3464741.
##  5 SAN MARCOS POLICE DEPT                    1082        3100421.
##  6 AUSTIN POLICE DEPT                        1458        2741021.
##  7 MILAM COUNTY SHERIFF DEPT                  125        2723192.
##  8 ALVIN POLICE DEPT                          539        2545240.
##  9 HARRIS COUNTY CONSTABLE PCT 3              293        2376945.
## 10 PARKS AND WILDLIFE DEPT                   5608        2325655.
## # … with 347 more rows
```
…
