…
1. Start a new section to indication you are importing the data
2. Note in text it is from #tidytuesday
3. Add the code chunk below, which will download a saved copy of the data.


```r
kids_data <- read_rds("https://github.com/utdata/rwdir/blob/main/data-raw/kids-data.rds?raw=true")

# peek at the table
kids_data
```

```
## # A tibble: 23,460 × 6
##    state                variable  year      raw   inf_adj inf_adj_perchild
##    <chr>                <chr>    <dbl>    <dbl>     <dbl>            <dbl>
##  1 Alabama              PK12ed    1997  3271969  4665308.             3.93
##  2 Alaska               PK12ed    1997  1042311  1486170              7.55
##  3 Arizona              PK12ed    1997  3388165  4830986.             3.71
##  4 Arkansas             PK12ed    1997  1960613  2795523              3.89
##  5 California           PK12ed    1997 28708364 40933568              4.28
##  6 Colorado             PK12ed    1997  3332994  4752320.             4.38
##  7 Connecticut          PK12ed    1997  4014870  5724568.             6.70
##  8 Delaware             PK12ed    1997   776825  1107629.             5.63
##  9 District of Columbia PK12ed    1997   544051   775730.             6.11
## 10 Florida              PK12ed    1997 11498394 16394885              4.45
## # … with 23,450 more rows
```
…
```r
five_hied <- kids_data %>% 
  filter(
    variable == "highered",
    state %in% c("Texas", "Oklahoma", "Arkansas", "New Mexico", "Louisiana")
  )

five_hied
```

```
## # A tibble: 100 × 6
##    state      variable  year     raw  inf_adj inf_adj_perchild
##    <chr>      <chr>    <dbl>   <dbl>    <dbl>            <dbl>
##  1 Arkansas   highered  1997  457171  651853.            0.907
##  2 Louisiana  highered  1997  672364  958684.            0.731
##  3 New Mexico highered  1997  639409  911696.            1.68 
##  4 Oklahoma   highered  1997  624053  889800.            0.942
##  5 Texas      highered  1997 3940232 5618146.            0.944
##  6 Arkansas   highered  1998  477757  672909.            0.930
##  7 Louisiana  highered  1998  747739 1053172.            0.805
##  8 New Mexico highered  1998  667738  940492.            1.74 
##  9 Oklahoma   highered  1998  690234  972177.            1.02 
## 10 Texas      highered  1998 4185619 5895340.            0.970
## # … with 90 more rows
```
…
