…
```r
# save the url
class_data <- "https://docs.google.com/spreadsheets/d/e/2PACX-1vRCGayKLOy-52gKmEoPOj3ZKnOQVtCiooSloiCr-i_ci27e4n1CMPL0Z9s6MeFX9oQuN9E-HCFJnWjD/pub?gid=1456715839&single=true&output=csv"

# read the data, clean names and save into the object "raw_data"
raw_data <- read_csv(class_data) %>% clean_names()

# peek at the data
raw_data
```

```
## # A tibble: 30 x 11
##    times~1 first~2 last_~3 candy~4 box_c~5   red green orange yellow  blue brown
##    <chr>   <chr>   <chr>   <chr>   <chr>   <dbl> <dbl>  <dbl>  <dbl> <dbl> <dbl>
##  1 2/21/2~ Christ~ McDona~ Plain   140BSC~     2    17     11      4    16     4
##  2 2/28/2~ Andrew  Logan   Plain   140BSC~     2     9     14      4    17     9
##  3 2/28/2~ Gabby   Ybarra  Plain   140BSC~     4    11     14      0    19     7
##  4 2/28/2~ Veroni~ Apodaca Plain   140BSC~     1    17     16      2    13     8
##  5 2/28/2~ Criste~ Jones   Plain   140BSC~     3    19     14      3    13     3
##  6 2/28/2~ Marina  Garcia  Plain   140BSC~     7    11     13      1    14     6
##  7 2/28/2~ Samuel  Stark   Plain   140BSC~     3     9     10      5    18     8
##  8 2/28/2~ Kevin   Malcol~ Plain   140BSC~     4    15     13      6    14     3
##  9 2/28/2~ Alexa   Haverl~ Plain   140BSC~     5    15      6      2    21     5
## 10 2/28/2~ Zachar~ Washin~ Plain   140BSC~     1    15     14      1    20     6
## # ... with 20 more rows, and abbreviated variable names 1: timestamp,
## #   2: first_name, 3: last_name, 4: candy_type, 5: box_code
```
…
