…
Since all nine of our data files have the same column names, we can easily merge them with function **`bind_rows()`**.

Let's demonstrate through building it.

1. Start a new section on your R Markdown document and note you are merging data
1. Add a chunk with just the `dstud13` data and run it.


```r
dstud13
```

```
## # A tibble: 1,228 × 5
##    district year  dpetallc dpetspec dpetspep
##    <chr>    <chr>    <dbl>    <dbl>    <dbl>
##  1 001902   2013       595       73     12.3
##  2 001903   2013      1236      113      9.1
##  3 001904   2013       751       81     10.8
##  4 001906   2013       406       45     11.1
##  5 001907   2013      3288      252      7.7
##  6 001908   2013      1619      151      9.3
##  7 001909   2013       439       48     10.9
##  8 002901   2013      3617      250      6.9
##  9 003801   2013       635       45      7.1
## 10 003902   2013      2726      196      7.2
## # … with 1,218 more rows
```

The result shows there are **1,228** rows and **5** variables in the data, which should match what shows for `dstud13` in your Environment tab.

1. Now **edit** that chunk to use `bind_rows()` with `dstud14`.


```r
dstud13 %>% 
  bind_rows(dstud14)
```

```
## # A tibble: 2,455 × 5
##    district year  dpetallc dpetspec dpetspep
##    <chr>    <chr>    <dbl>    <dbl>    <dbl>
##  1 001902   2013       595       73     12.3
##  2 001903   2013      1236      113      9.1
##  3 001904   2013       751       81     10.8
##  4 001906   2013       406       45     11.1
##  5 001907   2013      3288      252      7.7
##  6 001908   2013      1619      151      9.3
##  7 001909   2013       439       48     10.9
##  8 002901   2013      3617      250      6.9
##  9 003801   2013       635       45      7.1
## 10 003902   2013      2726      196      7.2
## # … with 2,445 more rows
```
…
