…
```r
tx_covid <- covid %>% 
  filter(state == "Texas") %>% 
  group_by(county) %>% 
  slice_max(date) %>% # our new function that gets the latest date
  filter(county != "Unknown") %>% 
  select(-state)

tx_covid
```

```
## # A tibble: 255 x 5
## # Groups:   county [255]
##    date       county    fips  cases deaths
##    <date>     <chr>     <chr> <dbl>  <dbl>
##  1 2022-03-04 Anderson  48001  9491    230
##  2 2022-03-04 Andrews   48003  3788     71
##  3 2022-03-04 Angelina  48005 15241    471
##  4 2022-03-04 Aransas   48007  4052     78
##  5 2022-03-04 Archer    48009  2092     28
##  6 2022-03-04 Armstrong 48011   502      8
##  7 2022-03-04 Atascosa  48013 13293    229
##  8 2022-03-04 Austin    48015  5569     71
##  9 2022-03-04 Bailey    48017  1380     38
## 10 2022-03-04 Bandera   48019  3527     74
## # ... with 245 more rows
```
…
```
## Using the PL 94-171 Redistricting Data summary file
```

```
## Note: 2020 decennial Census data use differential privacy, a technique that
## introduces errors into data to preserve respondent confidentiality.
## i Small counts should be interpreted with caution.
## i See https://www.census.gov/library/fact-sheets/2021/protecting-the-confidentiality-of-the-2020-census-redistricting-data.html for additional guidance.
## This message is displayed once per session.
```

```
## # A tibble: 52 x 4
##    GEOID NAME                 variable    value
##    <chr> <chr>                <chr>       <dbl>
##  1 01    Alabama              P1_001N   5024279
##  2 02    Alaska               P1_001N    733391
##  3 04    Arizona              P1_001N   7151502
##  4 05    Arkansas             P1_001N   3011524
##  5 06    California           P1_001N  39538223
##  6 08    Colorado             P1_001N   5773714
##  7 09    Connecticut          P1_001N   3605944
##  8 10    Delaware             P1_001N    989948
##  9 11    District of Columbia P1_001N    689545
## 10 16    Idaho                P1_001N   1839106
## # ... with 42 more rows
```
…
tx_joined
```

```
## Simple feature collection with 254 features and 8 fields
## Geometry type: MULTIPOLYGON
## Dimension:     XY
## Bounding box:  xmin: -106.6456 ymin: 25.83738 xmax: -93.50829 ymax: 36.5007
## Geodetic CRS:  NAD83
## # A tibble: 254 x 9
##    geoid name   variable value                  geometry date       county cases
##    <chr> <chr>  <chr>    <dbl>        <MULTIPOLYGON [째]> <date>     <chr>  <dbl>
##  1 48001 Ander~ P1_001N  57922 (((-96.0648 31.98066, -9~ 2022-03-04 Ander~  9491
##  2 48003 Andre~ P1_001N  18610 (((-103.0647 32.52219, -~ 2022-03-04 Andre~  3788
##  3 48005 Angel~ P1_001N  86395 (((-95.00488 31.42396, -~ 2022-03-04 Angel~ 15241
##  4 48007 Arans~ P1_001N  23830 (((-96.8229 28.16743, -9~ 2022-03-04 Arans~  4052
##  5 48009 Arche~ P1_001N   8560 (((-98.95383 33.48959, -~ 2022-03-04 Archer  2092
##  6 48011 Armst~ P1_001N   1848 (((-101.6294 34.75006, -~ 2022-03-04 Armst~   502
##  7 48013 Atasc~ P1_001N  48981 (((-98.80488 29.10702, -~ 2022-03-04 Atasc~ 13293
##  8 48015 Austi~ P1_001N  30167 (((-96.62085 30.0452, -9~ 2022-03-04 Austin  5569
##  9 48017 Baile~ P1_001N   6904 (((-103.0469 33.8503, -1~ 2022-03-04 Bailey  1380
## 10 48019 Bande~ P1_001N  20851 (((-99.60332 29.74026, -~ 2022-03-04 Bande~  3527
## # ... with 244 more rows, and 1 more variable: deaths <dbl>
```
…
