…
```r
aisd <- sped_calcs %>% 
  filter(district_name == "AUSTIN ISD") %>% 
  select(-district_name, -campus)

aisd
```

```
## # A tibble: 109 × 11
##    school_name   grade_range sped_c_15 sped_p_15 sped_c_20 sped_p_20 sped_c_diff
##    <chr>         <chr>           <dbl>     <dbl>     <dbl>     <dbl>       <dbl>
##  1 AUSTIN H S    '09-12            183       8.8       223       9.5          40
##  2 NAVARRO EARL… '09-12            198      12.3       241      15.8          43
##  3 MCCALLUM H S  '09-12            154       9.4       144       8.2         -10
##  4 NORTHEAST EA… '09-12            157      12.8       162      14.2           5
##  5 TRAVIS EARLY… '09-12            199      15.2       200      17             1
##  6 CROCKETT ECHS '09-12            228      15.3       238      15.5          10
##  7 ANDERSON H S  '09-12            146       6.6       190       8.6          44
##  8 BOWIE H S     '09-12            212       7.4       282       9.9          70
##  9 LBJ ECHS      '09-12            111      13.2       128      15.1          17
## 10 AKINS H S     '09-12            289      10.9       351      12.8          62
## # … with 99 more rows, and 4 more variables: sped_c_prccng <dbl>,
## #   sped_p_ppd <dbl>, sped15_thsh <chr>, sped20_thsh <chr>
```
…
Our last question to answer with arrange is who had the "greatest change in the share of special education students". That's a mouthful and the answer is nuanced, too.

Let's start by arranging by the percent change in the count: `sped_c_prccng`.


```r
aisd %>% 
  arrange(
    sped_c_prccng
  )
```

```
## # A tibble: 109 × 11
##    school_name   grade_range sped_c_15 sped_p_15 sped_c_20 sped_p_20 sped_c_diff
##    <chr>         <chr>           <dbl>     <dbl>     <dbl>     <dbl>       <dbl>
##  1 NORMAN-SIMS … 'EE-06             34      11.4        12       9.5         -22
##  2 METZ EL       'EE-05             40      11.2        22      10.4         -18
##  3 SANCHEZ EL    'EE-05             38       8.8        21       7.8         -17
##  4 EASTSIDE MEM… '09-12            109      17.6        72      17.2         -37
##  5 BRYKER WOODS… 'EE KG-06          22       5.6        16       4            -6
##  6 PICKLE EL     'EE-05             48       6.5        37       7.3         -11
##  7 WINN EL       'EE-06             49      14.6        40      14.2          -9
##  8 REILLY EL     'EE-05             35      12.7        29      11.3          -6
##  9 ANDREWS EL    'EE-06             62       9.5        52      14           -10
## 10 OAK SPRINGS … 'EE-05             39      12.7        33      14.4          -6
## # … with 99 more rows, and 4 more variables: sped_c_prccng <dbl>,
## #   sped_p_ppd <dbl>, sped15_thsh <chr>, sped20_thsh <chr>
```

Seven schools more than doubled their share of special education students. Wooldridge Elementary went from 35 to 79 students, a 132 percent increase.

We can also look at the change in the percentage point change by sorting on `sped_p_ppd`.


```r
aisd %>% 
  arrange(sped_p_ppd %>% desc())
```

```
## # A tibble: 109 × 11
##    school_name   grade_range sped_c_15 sped_p_15 sped_c_20 sped_p_20 sped_c_diff
##    <chr>         <chr>           <dbl>     <dbl>     <dbl>     <dbl>       <dbl>
##  1 BROOKE EL     'EE-05             43      12.4        71      24.6          28
##  2 GOVALLE EL    'EE-05             57      10.5        79      21.7          22
##  3 WIDEN EL      'EE-05             70      11.9       102      22.9          32
##  4 PEREZ EL      'EE-05             58       7.2        95      17.2          37
##  5 WOOTEN EL     'EE-05             66       9.1        84      18.4          18
##  6 ALLISON EL    'EE-06             41       8.4        88      17.5          47
##  7 HART EL       'EE-05             49       6.9       104      15.7          55
##  8 ORTEGA EL     'EE-05             30       9.2        50      17.8          20
##  9 WOOLDRIDGE EL 'EE-05             34       6          79      14.6          45
## 10 ZAVALA EL     'EE-06             61      15.3        59      23.8          -2
## # … with 99 more rows, and 4 more variables: sped_c_prccng <dbl>,
## #   sped_p_ppd <dbl>, sped15_thsh <chr>, sped20_thsh <chr>
```
…
