…
```
## `summarise()` has grouped output by 'year(chart_date)'. You can override using
## the `.groups` argument.
```

```
## # A tibble: 22,481 × 3
## # Groups:   year(chart_date) [64]
##    `year(chart_date)` performer      appearances
##                 <dbl> <chr>                <int>
##  1               1964 The Beatles            214
##  2               2021 Olivia Rodrigo         172
##  3               2018 Drake                  168
##  4               2019 Billie Eilish          145
##  5               2016 Drake                  134
##  6               2015 The Weeknd             126
##  7               2005 Kelly Clarkson         124
##  8               2015 Drake                  124
##  9               2009 Taylor Swift           122
## 10               2009 Beyonce                118
## # … with 22,471 more rows
```
…
```
## `summarise()` has grouped output by 'yr'. You can override using the `.groups`
## argument.
```

```
## # A tibble: 22,481 × 3
## # Groups:   yr [64]
##       yr performer      appearances
##    <dbl> <chr>                <int>
##  1  1964 The Beatles            214
##  2  2021 Olivia Rodrigo         172
##  3  2018 Drake                  168
##  4  2019 Billie Eilish          145
##  5  2016 Drake                  134
##  6  2015 The Weeknd             126
##  7  2005 Kelly Clarkson         124
##  8  2015 Drake                  124
##  9  2009 Taylor Swift           122
## 10  2009 Beyonce                118
## # … with 22,471 more rows
```
…
