Reporting with Data in R - 10 Plotting for answers
…
You won’t need this because I believe in you

district_percents_data <- sped |> 
  select(distname, cntyname, year, sped_percent) |> 
  pivot_wider(names_from = year, values_from = sped_percent)

10.4.2 Make a datatable

Now comes the magic.

In a new R chunk take your district_percents_data and then pipe it into a function called datatable()

district_percents_data

# A tibble: 1,022 × 12
   distname     cntyname `2013` `2014` `2015` `2016` `2017` `2018` `2019` `2020`
   <chr>        <chr>     <dbl>  <dbl>  <dbl>  <dbl>  <dbl>  <dbl>  <dbl>  <dbl>
 1 CAYUGA ISD   ANDERSON   12.3   13.7   13.2   13.7   14.2   14.4   14.9   14.7
 2 ELKHART ISD  ANDERSON    9.1    8.9   10.4   11.6   11     10.5   10.7   11.8
 3 FRANKSTON I… ANDERSON   10.8    9.7    9.7    8.2    8.9   10.1   11.5   11.6
 4 NECHES ISD   ANDERSON   11.1    9     11.1   11      9.8    9.7    8.7    7.1
 5 PALESTINE I… ANDERSON    7.7    7.8    8.7    8.5    8.8    9.2   10.7   11.6
 6 WESTWOOD ISD ANDERSON    9.3   10      9.3    9.9   10.6   10.8   12.3   14  
 7 SLOCUM ISD   ANDERSON   10.9   11.9   12.3   13     12.7   12.5   12.3   13.4
 8 ANDREWS ISD  ANDREWS     6.9    6.6    6.4    6.5    7.1    7.2    8      8.5
 9 HUDSON ISD   ANGELINA    7.2    6.2    7.1    7.6    7.5    8.4    8.6    9  
10 LUFKIN ISD   ANGELINA   10.6   10.5   10.5   10.5   10.3   10.4   10.8   11.6
# ℹ 1,012 more rows
# ℹ 2 more variables: `2021` <dbl>, `2022` <dbl>
…
