Chapter 12 Joining census data | Reporting with Data in R
…
Create a new section that notes you are getting the most recent Texas data by county.

Add the code chunk below (one line at a time!) and run it.

tx_covid <- covid %>% 
  filter(state == "Texas") %>% 
  group_by(county) %>% 
  slice_max(date) %>% # our new function that gets the latest date
  filter(county != "Unknown") %>% 
  select(-state)

tx_covid

## # A tibble: 255 x 5
## # Groups:   county [255]
##    date       county    fips  cases deaths
##    <date>     <chr>     <chr> <dbl>  <dbl>
##  1 2022-03-08 Anderson  48001  9503    230
##  2 2022-03-08 Andrews   48003  3789     71
##  3 2022-03-08 Angelina  48005 15245    474
##  4 2022-03-08 Aransas   48007  4055     79
##  5 2022-03-08 Archer    48009  2096     28
##  6 2022-03-08 Armstrong 48011   503      9
##  7 2022-03-08 Atascosa  48013 13315    229
##  8 2022-03-08 Austin    48015  5592     71
##  9 2022-03-08 Bailey    48017  1382     38
## 10 2022-03-08 Bandera   48019  3541     74
## # ... with 245 more rows
…
## Getting data from the 2020 decennial Census

## Using the PL 94-171 Redistricting Data summary file

## Note: 2020 decennial Census data use differential privacy, a technique that
## introduces errors into data to preserve respondent confidentiality.
## i Small counts should be interpreted with caution.
## i See https://www.census.gov/library/fact-sheets/2021/protecting-the-confidentiality-of-the-2020-census-redistricting-data.html for additional guidance.
## This message is displayed once per session.

## # A tibble: 52 x 4
##    GEOID NAME                 variable    value
##    <chr> <chr>                <chr>       <dbl>
##  1 01    Alabama              P1_001N   5024279
##  2 02    Alaska               P1_001N    733391
##  3 04    Arizona              P1_001N   7151502
##  4 05    Arkansas             P1_001N   3011524
##  5 06    California           P1_001N  39538223
##  6 08    Colorado             P1_001N   5773714
##  7 09    Connecticut          P1_001N   3605944
##  8 10    Delaware             P1_001N    989948
##  9 11    District of Columbia P1_001N    689545
## 10 16    Idaho                P1_001N   1839106
## # ... with 42 more rows
…
tx_joined <- inner_join(
  tx_pop, # first table
  tx_covid, # second table with columns we'll add
  by = c("geoid" = "fips") # note the joining columns
)

tx_joined

## Simple feature collection with 254 features and 8 fields
## Geometry type: MULTIPOLYGON
## Dimension:     XY
## Bounding box:  xmin: -106.6456 ymin: 25.83738 xmax: -93.50829 ymax: 36.5007
## Geodetic CRS:  NAD83
## # A tibble: 254 x 9
##    geoid name   variable value                  geometry date       county cases
##    <chr> <chr>  <chr>    <dbl>        <MULTIPOLYGON [°]> <date>     <chr>  <dbl>
##  1 48001 Ander~ P1_001N  57922 (((-96.0648 31.98066, -9~ 2022-03-08 Ander~  9503
##  2 48003 Andre~ P1_001N  18610 (((-103.0647 32.52219, -~ 2022-03-08 Andre~  3789
##  3 48005 Angel~ P1_001N  86395 (((-95.00488 31.42396, -~ 2022-03-08 Angel~ 15245
##  4 48007 Arans~ P1_001N  23830 (((-96.8229 28.16743, -9~ 2022-03-08 Arans~  4055
##  5 48009 Arche~ P1_001N   8560 (((-98.95383 33.48959, -~ 2022-03-08 Archer  2096
##  6 48011 Armst~ P1_001N   1848 (((-101.6294 34.75006, -~ 2022-03-08 Armst~   503
##  7 48013 Atasc~ P1_001N  48981 (((-98.80488 29.10702, -~ 2022-03-08 Atasc~ 13315
##  8 48015 Austi~ P1_001N  30167 (((-96.62085 30.0452, -9~ 2022-03-08 Austin  5592
##  9 48017 Baile~ P1_001N   6904 (((-103.0469 33.8503, -1~ 2022-03-08 Bailey  1382
## 10 48019 Bande~ P1_001N  20851 (((-99.60332 29.74026, -~ 2022-03-08 Bande~  3541
## # ... with 244 more rows, and 1 more variable: deaths <dbl>
…
