Chapter 11 Census introduction | Reporting with Data in R
…
Add the chunk below and run it and then I’ll explain after

get_acs(
  year = 2019,
  variables = c(broadband = "S2801_C02_014"),
  geography = "county", # we changed this to county
  state = "TX" # We've added state to filter to just Texas
)

## Getting data from the 2015-2019 5-year ACS

## Using the ACS Subject Tables

## # A tibble: 254 x 5
##    GEOID NAME                    variable  estimate   moe
##    <chr> <chr>                   <chr>        <dbl> <dbl>
##  1 48001 Anderson County, Texas  broadband     67.9   3  
##  2 48003 Andrews County, Texas   broadband     86.2   3.2
##  3 48005 Angelina County, Texas  broadband     82.3   1.7
##  4 48007 Aransas County, Texas   broadband     81.8   3.6
##  5 48009 Archer County, Texas    broadband     75.4   3.4
##  6 48011 Armstrong County, Texas broadband     81.6   4.8
##  7 48013 Atascosa County, Texas  broadband     80.2   2.5
##  8 48015 Austin County, Texas    broadband     74.3   2.8
##  9 48017 Bailey County, Texas    broadband     70.5   5.8
## 10 48019 Bandera County, Texas   broadband     81.8   3.1
## # ... with 244 more rows
…
