Chapter 14 Cleaning | Reporting with Data in R
…
The race_simple column was added to the end of the data frame. If you look at your environment, data_race has 10 columns vs 9 for data.

14.6 Filter out data we don’t need

Cleaning up the arrest_charge column is more complicated and we need to talk about our goals first. Let’s look again at the different arrest_charge values.

Add this count to your notebook

data_race %>% 
  count(arrest_charge) %>% 
  arrange(n %>% desc())

## # A tibble: 155 × 2
##    arrest_charge                    n
##    <chr>                        <int>
##  1 POSS MARIJ < 2OZ              2214
##  2 POSS MARIJ <2OZ               1963
##  3 POSS MARIJUANA <2OZ           1355
##  4 POSS MARIJ <2OZ (MB)           848
##  5 POSSESSION OF MARIJUANA <2OZ   346
##  6 POSS MARIJ                     199
##  7 POSS MARIJUANA                 140
##  8 POSS MARIJ >2OZ<=4OZ            85
##  9 POSS MARIJ >4OZ<=5LBS           82
## 10 POSS MARIJ <= 5LBS > 4OZ        57
## # … with 145 more rows
…
This will be a process! We’ll build filters and sometimes use count() to check the results before creating new data frames with the filtered data.

14.6.2 Filter out delivery charges

Before we can remove data, we need to make sure we can find it properly. As you page through the charges results above, you’ll see some rows have “DEL” in the charge description. We will use filter() (which we’ve used in the Transform chapter) and str_detect() to find these records, review them, and then “negate” the filter so they are NOT included.

Create a new chunk called “filter-del” and include the following code. I explain it afterward.

data_race %>% 
  filter(
    str_detect(arrest_charge, "DEL") 
  )

## # A tibble: 27 × 10
##    arrest_primary_k… arrest_date         arrest_charge         apd_race    sex  
##    <chr>             <dttm>              <chr>                 <chr>       <chr>
##  1 201600659         2016-01-05 00:00:00 DEL MARIJUANA <= 5LB… WHITE       M    
##  2 201603658         2016-01-27 00:00:00 DEL MARIJ <= 5LBS > … BLACK       M    
##  3 201604087         2016-01-30 00:00:00 DEL MARIJ <= 5LBS > … HISPANIC O… M    
##  4 201606440         2016-02-16 00:00:00 DEL MARIJUANA <=5LBS… HISPANIC O… M    
##  5 201610015         2016-03-14 00:00:00 POSS MARIJ < 2OZ W/I… HISPANIC O… M    
##  6 201611111         2016-03-22 00:00:00 POSS MARIJ <= 5LBS >… HISPANIC O… M    
##  7 201641367         2016-11-14 00:00:00 DEL MARIJ MARIJUANA-… HISPANIC O… M    
##  8 201641369         2016-11-14 00:00:00 DEL MARIJUANA- 2LBS   HISPANIC O… F    
##  9 201704935         2017-02-07 00:00:00 MANF/DEL-POSS MARIJ … BLACK       M    
## 10 201800337         2018-01-03 00:00:00 DEL MARIJUANA >1/4 O… BLACK       M    
## # … with 17 more rows, and 5 more variables: arrest_location <chr>, zip <chr>,
## #   arrest_x_coordinate <dbl>, arrest_y_coordinate <dbl>, race_simple <chr>

The filter() selects data based on a set of rules we give it. In the past, we fed the function a column name and a value to look for. This time we are feeding is a function str_detect() which takes two values: The column to look in, and then the text we are looking for. This method will find the text no matter where it appears within the field.

There are 27 results. As you page through these results you’ll see all the rows that have DEL in it, including some that have POS like “MANF/DEL-POSS MARIJ <= 4OZ > 2OZ.” That’s OK If it is a delivery, we don’t want it.

Now we add the “negate” option of ! before the str_detect so we get all the rows except those with “DEL.”

Update your “filter-del” chunk to add ! right before the str_detect and run it.

data_race %>% 
  filter(
    !str_detect(arrest_charge, "DEL")
  )

## # A tibble: 7,801 × 10
##    arrest_primary_key arrest_date         arrest_charge     apd_race       sex  
##    <chr>              <dttm>              <chr>             <chr>          <chr>
##  1 201600012          2016-01-01 00:00:00 POSS MARIJUANA <… BLACK          M    
##  2 201600018          2016-01-01 00:00:00 POSS MARIJ < 2OZ  BLACK          M    
##  3 201600061          2016-01-01 00:00:00 POSS MARIJ < 2OZ  HISPANIC OR L… M    
##  4 201600074          2016-01-01 00:00:00 POSS MARIJ < 2OZ  HISPANIC OR L… M    
##  5 201600131          2016-01-01 00:00:00 POSS MARIJ < 2OZ  BLACK          M    
##  6 201600145          2016-01-01 00:00:00 POSS MARIJ < 2OZ  HISPANIC OR L… M    
##  7 201600153          2016-01-01 00:00:00 POSS MARIJ < 2OZ  WHITE          F    
##  8 201600154          2016-01-01 00:00:00 POSS MARIJ < 2OZ  HISPANIC OR L… M    
##  9 201600172          2016-01-01 00:00:00 POSS MARIJ < 2OZ  HISPANIC OR L… M    
## 10 201600176          2016-01-01 00:00:00 POSS MARIJ < 2OZ  BLACK          M    
## # … with 7,791 more rows, and 5 more variables: arrest_location <chr>,
## #   zip <chr>, arrest_x_coordinate <dbl>, arrest_y_coordinate <dbl>,
## #   race_simple <chr>
…
data_nodel <- data_race %>% 
  filter(
    !str_detect(arrest_charge, "DEL")
  )

If you look at your environment you’ll see the data_nodel data has 27 fewer observations than the data tibble, the same number or records you got in your original filter. This is good!

14.6.3 Remove controlled substance

If you look at the charges again, you’ll see some other charges that are NOT related to marijuana. These are “controlled substance” charges. We don’t want them.

data_nodel %>% 
  count(arrest_charge)

## # A tibble: 139 × 2
##    arrest_charge                              n
##    <chr>                                  <int>
##  1 POM                                        1
##  2 POSS CS PG 1 <1G                           1
##  3 POSS CS PG 3< 28G                          3
##  4 POSS CS PG 3< 28G - TYLENOL W/ CODEINE     1
##  5 POSS CS PG 3< 28G -PILLS                   1
##  6 POSS CS PG 3< 28G -XANEX -ALPRAZOLAM       1
##  7 POSS CS PG 3< 28G (PILLS)                  1
##  8 POSS CS PG 3< 28G / XANAX (ALPRAZOLAM)     1
##  9 POSS CS PG 3< 28G- KLONOPIN                1
## 10 POSS CS PG 3< 28G- XANAX                   1
## # … with 129 more rows
…
data_nocs <- data_nodel %>% 
filter(
  !str_detect(arrest_charge, "CS")
)

14.6.4 Remove drug free zones

Our next move is to remove all the records that have a drug free zone enhancement. Let’s look at the charges data once again using count().

Create a new chunk called “dfz-count” and use our data_nocs tibble to count arrest_charge values.

data_nocs %>% 
  count(arrest_charge)

## # A tibble: 130 × 2
##    arrest_charge                   n
##    <chr>                       <int>
##  1 POM                             1
##  2 POSS MARIJ                    199
##  3 POSS MARIJ  - LT 2 OZ           1
##  4 POSS MARIJ  -1 LB               1
##  5 POSS MARIJ  4OZ - 5LBS          1
##  6 POSS MARIJ  4OZ<5LBS            1
##  7 POSS MARIJ - DRUG FREE ZONE     1
##  8 POSS MARIJ (FS)                 1
##  9 POSS MARIJ (MB)                 1
## 10 POSS MARIJ < 2OZ             2214
## # … with 120 more rows
…
We’ll also remove any row that has a charge with “LB” because that definitely is more than 2 OZ.

Add this chunk to your project and run it.

# list escapes ( to get (MA), etc
fs_list <- c("\\(MA\\)|\\(FS\\)|\\(F3\\)|LB")

# checks the catch list
data_norta %>% 
  filter(
    str_detect(arrest_charge, fs_list)
  ) %>% 
  count(arrest_charge)

## # A tibble: 28 × 2
##    arrest_charge                          n
##    <chr>                              <int>
##  1 POSS MARIJ  -1 LB                      1
##  2 POSS MARIJ  4OZ - 5LBS                 1
##  3 POSS MARIJ  4OZ<5LBS                   1
##  4 POSS MARIJ (FS)                        1
##  5 POSS MARIJ <= 50 LBS >5LBS             8
##  6 POSS MARIJ <= 5LBS > 4 OZ              1
##  7 POSS MARIJ <= 5LBS > 4OZ              57
##  8 POSS MARIJ <= 5LBS > 4OZ     4 LBS     1
##  9 POSS MARIJ <=5LBS>50LBS                2
## 10 POSS MARIJ <=5LBS>50LBS(F3)            6
## # … with 18 more rows

# checks the negate
data_norta %>% 
  filter(
    !str_detect(arrest_charge, fs_list)
  ) %>% 
  count(arrest_charge)

## # A tibble: 58 × 2
##    arrest_charge                         n
##    <chr>                             <int>
##  1 POM                                   1
##  2 POSS MARIJ                          199
##  3 POSS MARIJ  - LT 2 OZ                 1
##  4 POSS MARIJ (MB)                       1
##  5 POSS MARIJ < 2OZ                   2214
##  6 POSS MARIJ < 2OZ    -< 4OZ            1
##  7 POSS MARIJ < 2OZ   -<4OZ              1
##  8 POSS MARIJ < 2OZ - POM                1
##  9 POSS MARIJ < 2OZ - POSS MARIJUANA     1
## 10 POSS MARIJ < 2OZ -BY WEIGHT           1
## # … with 48 more rows
…
THIS IS WHERE I STOPPED LAST.

We’ve removed a lot of crap, but now we have the hard part. How do we get just B misdemeanors while dealing with some obvious data coding errors?

attempts to get to just b mis

mb_list <- c("< *2")

data_nofs %>% 
  filter(
    str_detect(arrest_charge, mb_list)
  ) %>% 
  count(arrest_charge)

## # A tibble: 30 × 2
##    arrest_charge                         n
##    <chr>                             <int>
##  1 POSS MARIJ < 2OZ                   2214
##  2 POSS MARIJ < 2OZ    -< 4OZ            1
##  3 POSS MARIJ < 2OZ   -<4OZ              1
##  4 POSS MARIJ < 2OZ - POM                1
##  5 POSS MARIJ < 2OZ - POSS MARIJUANA     1
##  6 POSS MARIJ < 2OZ -BY WEIGHT           1
##  7 POSS MARIJ < 2OZ UNDER 4 OUNCES       1
##  8 POSS MARIJ < 2OZ>4                    1
##  9 POSS MARIJ <2OZ                    1963
## 10 POSS MARIJ <2OZ   .3OZ                1
## # … with 20 more rows

data_nofs %>% 
  filter(
    !str_detect(arrest_charge, mb_list)
  ) %>% 
  count(arrest_charge)

## # A tibble: 28 × 2
##    arrest_charge               n
##    <chr>                   <int>
##  1 POM                         1
##  2 POSS MARIJ                199
##  3 POSS MARIJ  - LT 2 OZ       1
##  4 POSS MARIJ (MB)             1
##  5 POSS MARIJ < 4OZ            2
##  6 POSS MARIJ <= 4OZ > 2OZ    52
##  7 POSS MARIJ <1OZ             1
##  8 POSS MARIJ <4OZ            21
##  9 POSS MARIJ > 2OZ            1
## 10 POSS MARIJ >2OZ             1
## # … with 18 more rows
…
