Chapter 4 Summarize with count - analysis | Reporting with Data in R
…
This is where we bring in a close friend to summarize() … the group_by() function.

4.5.3 Group by

The group_by() function pre-sorts data into groups so that whatever function follows is applied within each of the groups. That means group_by() always has something following it, and that something is usually summarize().

If we group_by() performer before we summarize/count our rows, it will put all of the rows with “Aerosmith” together, then all the “Bad Company” rows together, etc. and then it will count the rows within those groups … first those for Aerosmith and then those for Bad Company.

Modify your code block to add the group_by:

hot100 |>
  group_by(performer) |> 
  summarize(appearances = n())

## # A tibble: 10,492 × 2
##    performer                            appearances
##    <chr>                                      <int>
##  1 "? (Question Mark) & The Mysterians"          33
##  2 "'N Sync"                                    172
##  3 "'N Sync & Gloria Estefan"                    20
##  4 "'N Sync Featuring Nelly"                     20
##  5 "'Til Tuesday"                                53
##  6 "\"Groove\" Holmes"                           14
##  7 "\"Little\" Jimmy Dickens"                    10
##  8 "\"Pookie\" Hudson"                            1
##  9 "\"Weird Al\" Yankovic"                       91
## 10 "(+44)"                                        1
## # … with 10,482 more rows
…
That’s great, but who had the most?

4.5.4 Arrange the results

Remember in our import notebook when we sorted all the rows by the oldest chart date? We’ll use the same arrange() function here, but we’ll change the result to descending order, because journalists almost always want to know the most of something.

Edit your chunk to add the pipe and arrange function below and run it, then I’ll explain.

hot100 |>
  group_by(performer) |> 
  summarize(appearances = n()) |> 
  arrange(desc(appearances))

## # A tibble: 10,492 × 2
##    performer     appearances
##    <chr>               <int>
##  1 Taylor Swift         1178
##  2 Elton John            889
##  3 Madonna               857
##  4 Drake                 832
##  5 Kenny Chesney         777
##  6 Tim McGraw            739
##  7 Keith Urban           674
##  8 Stevie Wonder         659
##  9 Rod Stewart           657
## 10 Mariah Carey          634
## # … with 10,482 more rows
…
Add the code below ONE LINE AT A TIME and run it and then I’ll outline it below.

WRITE ONE LINE OF CODE. RUN IT. CHECK IT. REPEAT

Remember, you write and run the line BEFORE you add the pipe |>!

hot100 |> # start with the data, and then ...
  group_by(performer, title) |> # group by performer and title, and then ..
  summarize(appearances = n()) |> # count the rows with n(), and then ...
  arrange(desc(appearances)) # arrange by appearances in descending order

## `summarise()` has grouped output by 'performer'. You can override using the
## `.groups` argument.

## # A tibble: 30,425 × 3
## # Groups:   performer [10,492]
##    performer                                 title                       appea…¹
##    <chr>                                     <chr>                         <int>
##  1 Glass Animals                             Heat Waves                       91
##  2 The Weeknd                                Blinding Lights                  90
##  3 Imagine Dragons                           Radioactive                      87
##  4 AWOLNATION                                Sail                             79
##  5 Jason Mraz                                I'm Yours                        76
##  6 LeAnn Rimes                               How Do I Live                    69
##  7 LMFAO Featuring Lauren Bennett & GoonRock Party Rock Anthem                68
##  8 OneRepublic                               Counting Stars                   68
##  9 Adele                                     Rolling In The Deep              65
## 10 Jewel                                     Foolish Games/You Were Mea…      65
## # … with 30,415 more rows, and abbreviated variable name ¹​appearances
…
So let’s step through this with code:

Create a section with a headline, text and code chunk

Start with the hot100 data and then pipe into filter().

Within the filter, set the current_rank to be == to 1.

Run the result and check it

hot100 |> 
  filter(current_rank == 1)

## # A tibble: 3,361 × 7
##    chart_date current_rank title                 perfo…¹ previ…² peak_…³ wks_o…⁴
##    <date>            <dbl> <chr>                 <chr>     <dbl>   <dbl>   <dbl>
##  1 1958-08-04            1 Poor Little Fool      Ricky …      NA       1       1
##  2 1958-08-11            1 Poor Little Fool      Ricky …       1       1       2
##  3 1958-08-18            1 Nel Blu Dipinto Di B… Domeni…       2       1       3
##  4 1958-08-25            1 Little Star           The El…       2       1       4
##  5 1958-09-01            1 Nel Blu Dipinto Di B… Domeni…       2       1       5
##  6 1958-09-08            1 Nel Blu Dipinto Di B… Domeni…       1       1       6
##  7 1958-09-15            1 Nel Blu Dipinto Di B… Domeni…       1       1       7
##  8 1958-09-22            1 Nel Blu Dipinto Di B… Domeni…       1       1       8
##  9 1958-09-29            1 It's All In The Game  Tommy …       3       1       7
## 10 1958-10-06            1 It's All In The Game  Tommy …       1       1       8
## # … with 3,351 more rows, and abbreviated variable names ¹​performer,
## #   ²​previous_rank, ³​peak_rank, ⁴​wks_on_chart
…
Edit your existing chunk to add the group_by and summarize functions. Name your new column appearances and set it to count the rows with n().

While ONE LINE AT A TIME is still “the Way”, group_by() won’t actually show you any different results that without it, so I usually write group_by() and summarize() together. Or I write the summarize() line first to make sure it works, then edit in the group_by() line to split the data before the summary.

Try this on your own before you peek for the answer

hot100 |>
  filter(current_rank == 1) |> 
  group_by(performer, title) |>
  summarize(appearances = n())

## `summarise()` has grouped output by 'performer'. You can override using the
## `.groups` argument.

## # A tibble: 1,144 × 3
## # Groups:   performer [757]
##    performer                          title                            appeara…¹
##    <chr>                              <chr>                                <int>
##  1 ? (Question Mark) & The Mysterians 96 Tears                                 1
##  2 'N Sync                            It's Gonna Be Me                         2
##  3 24kGoldn Featuring iann dior       Mood                                     8
##  4 2Pac Featuring K-Ci And JoJo       How Do U Want It/California Love         2
##  5 50 Cent                            In Da Club                               9
##  6 50 Cent Featuring Nate Dogg        21 Questions                             4
##  7 50 Cent Featuring Olivia           Candy Shop                               9
##  8 6ix9ine & Nicki Minaj              Trollz                                   1
##  9 A Taste Of Honey                   Boogie Oogie Oogie                       3
## 10 a-ha                               Take On Me                               1
## # … with 1,134 more rows, and abbreviated variable name ¹​appearances
…
Edit your chunk to add the arrange() function to sort by appearances in desc() order. This is just like our last quest.

Maybe check your last chunk on how you used arrange, then try it before checking the answer here.

hot100 |>
  filter(current_rank == 1) |> 
  group_by(performer, title) |>
  summarize(appearances = n()) |>
  arrange(appearances |> desc())

## `summarise()` has grouped output by 'performer'. You can override using the
## `.groups` argument.

## # A tibble: 1,144 × 3
## # Groups:   performer [757]
##    performer                                         title               appea…¹
##    <chr>                                             <chr>                 <int>
##  1 Lil Nas X Featuring Billy Ray Cyrus               Old Town Road            19
##  2 Luis Fonsi & Daddy Yankee Featuring Justin Bieber Despacito                16
##  3 Mariah Carey & Boyz II Men                        One Sweet Day            16
##  4 Harry Styles                                      As It Was                15
##  5 Boyz II Men                                       I'll Make Love To …      14
##  6 Elton John                                        Candle In The Wind…      14
##  7 Los Del Rio                                       Macarena (Bayside …      14
##  8 Mariah Carey                                      We Belong Together       14
##  9 Mark Ronson Featuring Bruno Mars                  Uptown Funk!             14
## 10 The Black Eyed Peas                               I Gotta Feeling          14
## # … with 1,134 more rows, and abbreviated variable name ¹​appearances
…
Because a song could be No. 1 for more than one week, we need to consider the same title/performer combination only once. Another way to say this is we need unique or distinct combinations of title/performer. (We’ll introduce a new function to find this.)

Once we have all the unique No. 1 songs in a list, then we can group by performer and count the number of times they are on the list.

Let’s start by getting the No. 1 songs. You’ve did this in the last quest.

Create a new section with a headline, text and code chunk.

Start with the hot100 data and filter it so you only have current_rank of 1.

hot100 |> 
  filter(current_rank == 1)

## # A tibble: 3,361 × 7
##    chart_date current_rank title                 perfo…¹ previ…² peak_…³ wks_o…⁴
##    <date>            <dbl> <chr>                 <chr>     <dbl>   <dbl>   <dbl>
##  1 1958-08-04            1 Poor Little Fool      Ricky …      NA       1       1
##  2 1958-08-11            1 Poor Little Fool      Ricky …       1       1       2
##  3 1958-08-18            1 Nel Blu Dipinto Di B… Domeni…       2       1       3
##  4 1958-08-25            1 Little Star           The El…       2       1       4
##  5 1958-09-01            1 Nel Blu Dipinto Di B… Domeni…       2       1       5
##  6 1958-09-08            1 Nel Blu Dipinto Di B… Domeni…       1       1       6
##  7 1958-09-15            1 Nel Blu Dipinto Di B… Domeni…       1       1       7
##  8 1958-09-22            1 Nel Blu Dipinto Di B… Domeni…       1       1       8
##  9 1958-09-29            1 It's All In The Game  Tommy …       3       1       7
## 10 1958-10-06            1 It's All In The Game  Tommy …       1       1       8
## # … with 3,351 more rows, and abbreviated variable names ¹​performer,
## #   ²​previous_rank, ³​peak_rank, ⁴​wks_on_chart
Now look at the result. Note how “Poor Little Fool” shows up more than once? Other songs do as well. If we counted rows by performer now, that would tell us the number of weeks they’ve had No. 1 songs, not how many different songs have made No. 1.

4.8.1 Using distinct()

The next challenge in our logic is to show only unique performer/title combinations. We do this with distinct().

We feed the distinct() function with the variables we want to consider together, in our case the perfomer and title. All other columns are dropped since including them would mess up their distinctness.

Edit your chunk to add the distinct() function to your code chunk.

hot100 |> 
  filter(current_rank == 1) |> 
  distinct(title, performer)

## # A tibble: 1,144 × 2
##    title                           performer                       
##    <chr>                           <chr>                           
##  1 Poor Little Fool                Ricky Nelson                    
##  2 Nel Blu Dipinto Di Blu (Volaré) Domenico Modugno                
##  3 Little Star                     The Elegants                    
##  4 It's All In The Game            Tommy Edwards                   
##  5 It's Only Make Believe          Conway Twitty                   
##  6 Tom Dooley                      The Kingston Trio               
##  7 To Know Him, Is To Love Him     The Teddy Bears                 
##  8 The Chipmunk Song               The Chipmunks With David Seville
##  9 Smoke Gets In Your Eyes         The Platters                    
## 10 Stagger Lee                     Lloyd Price                     
## # … with 1,134 more rows
…
Edit your chunk to add a group_by on performer and then a summarize() to count the rows. Name the new column no_hits. Run it.

After you are sure the group_by/summarize runs, add an arrange() to show the no1_hits in descending order.

You’ve done this before! Give it a go before checking the code here.

hot100 |> 
  filter(current_rank == 1) |>
  distinct(title, performer) |>
  group_by(performer) |>
  summarize(no1_hits = n()) |>
  arrange(no1_hits |> desc())

## # A tibble: 757 × 2
##    performer          no1_hits
##    <chr>                 <int>
##  1 The Beatles              19
##  2 Mariah Carey             16
##  3 Madonna                  12
##  4 Michael Jackson          11
##  5 Whitney Houston          11
##  6 The Supremes             10
##  7 Bee Gees                  9
##  8 Taylor Swift              8
##  9 The Rolling Stones        8
## 10 Janet Jackson             7
## # … with 747 more rows
…
4.11.4 Search within a string

And if you want to search for text within the data, you can use str_detect() to look for specific characters within a value to filter rows. str_detect() needs two arguments: 1) What column to search in, and 2) what to search for “in quotes”. I also use distinct() here to show only unique title/performer combinations.

# Songs where "2 Chainz" was among performers
hot100 |> 
  filter(str_detect(performer, "2 Chainz")) |> 
  distinct(title, performer)

## # A tibble: 40 × 2
##    title                  performer                                            
##    <chr>                  <chr>                                                
##  1 Mercy                  Kanye West, Big Sean, Pusha T, 2 Chainz              
##  2 Beez In The Trap       Nicki Minaj Featuring 2 Chainz                       
##  3 No Lie                 2 Chainz Featuring Drake                             
##  4 Birthday Song          2 Chainz Featuring Kanye West                        
##  5 Yuck!                  2 Chainz Featuring Lil Wayne                         
##  6 Bandz A Make Her Dance Juicy J Featuring Lil Wayne & 2 Chainz               
##  7 My Moment              DJ Drama Featuring 2 Chainz, Meek Mill & Jeremih     
##  8 F**kin Problems        A$AP Rocky Featuring Drake, 2 Chainz & Kendrick Lamar
##  9 I'm Different          2 Chainz                                             
## 10 R.I.P.                 Young Jeezy Featuring 2 Chainz                       
## # … with 30 more rows
…
After your code, explain what functions you used and why (like what did they do for you)

4.13 A shortcut: count()

In the interest of full disclosure but at the risk of confusing you, I must reveal this fact:

We count stuff in data science (and journalism) all the time. So dplyr has a shortcut to group, count and arrange rows of data. We needed to use the long way above because a) we will use group_by() and summarize() with other math that isn’t just counting rows, and b) you need to understand what is happening inside count(), which uses group_by/summarize/arrange under the hood.

The count() function takes the columns you want to group and then does the summarize on n() for you:

hot100 |> 
  count(performer)

## # A tibble: 10,492 × 2
##    performer                                n
##    <chr>                                <int>
##  1 "? (Question Mark) & The Mysterians"    33
##  2 "'N Sync"                              172
##  3 "'N Sync & Gloria Estefan"              20
##  4 "'N Sync Featuring Nelly"               20
##  5 "'Til Tuesday"                          53
##  6 "\"Groove\" Holmes"                     14
##  7 "\"Little\" Jimmy Dickens"              10
##  8 "\"Pookie\" Hudson"                      1
##  9 "\"Weird Al\" Yankovic"                 91
## 10 "(+44)"                                  1
## # … with 10,482 more rows
…
