Chapter 7 Intro to ggplot | Reporting with Data in R
…
Remove the boilerplate and create a setup section that loads library(tidyverse), like we do with every notebook.

7.4 The layers of ggplot

Much of this first plot explanation comes from Hadley Wickham’s R for Data Science, with edits to fit the lesson here.

We’re going to use a data set that is part of the tidyverse to explore how ggplot works.

Start a new section “First plot” and add a code chunk.

Add the code below and run it to see what the mpg dataset looks like.

mpg

## # A tibble: 234 × 11
##    manufacturer model      displ  year   cyl trans drv     cty   hwy fl    class
##    <chr>        <chr>      <dbl> <int> <int> <chr> <chr> <int> <int> <chr> <chr>
##  1 audi         a4           1.8  1999     4 auto… f        18    29 p     comp…
##  2 audi         a4           1.8  1999     4 manu… f        21    29 p     comp…
##  3 audi         a4           2    2008     4 manu… f        20    31 p     comp…
##  4 audi         a4           2    2008     4 auto… f        21    30 p     comp…
##  5 audi         a4           2.8  1999     6 auto… f        16    26 p     comp…
##  6 audi         a4           2.8  1999     6 manu… f        18    26 p     comp…
##  7 audi         a4           3.1  2008     6 auto… f        18    27 p     comp…
##  8 audi         a4 quattro   1.8  1999     4 manu… 4        18    26 p     comp…
##  9 audi         a4 quattro   1.8  1999     4 auto… 4        16    25 p     comp…
## 10 audi         a4 quattro   2    2008     4 manu… 4        20    28 p     comp…
## # … with 224 more rows
…
## Rows: 34 Columns: 3

## ── Column specification ────────────────────────────────────────────────────────
## Delimiter: ","
## chr (3): name, princess, ice_cream

## 
## ℹ Use `spec()` to retrieve the full column specification for this data.
## ℹ Specify the column types or set `show_col_types = FALSE` to quiet this message.

# peek at the data
class

## # A tibble: 34 × 3
##    name     princess                      ice_cream          
##    <chr>    <chr>                         <chr>              
##  1 Addie    Rapunzel (Tangled)            Cookie Dough       
##  2 Aisling  Pocahontas                    Mint Chocolate Chip
##  3 Alexis   Jasmine (Aladdin)             Cookie Dough       
##  4 Ana      Belle (Beauty and the Beast)  Cookies and Cream  
##  5 Andreana Mulan                         Strawberry         
##  6 Angelica Tiana (Princess and the Frog) Strawberry         
##  7 Ariana   Merida (Brave)                Coffee/Jamoca      
##  8 Cecilia  Cinderella                    Mint Chocolate Chip
##  9 Chandle  Jasmine (Aladdin)             Cookie Dough       
## 10 Chris    Cinderella                    Cookie Dough       
## # … with 24 more rows
…
