Chapter 8 Deeper into ggplot | Reporting with Data in R
…
We need to go back to our original leso_dated to get the additional states.

Start a new section that notes we are building a chart for five states (Texas, Oklahoma, Arkansas, New Mexico, and Louisiana)

Prepare the data using the %in% filter that we learned about in Chapter 6. Rather than creating a separate list, we’re going to write the list right into the filter() function using c().

leso_five <- leso_dated |> 
  filter(
    state %in% c("TX", "OK", "AR", "NM", "LA")
  )

leso_five

## # A tibble: 10,690 × 3
##     year total_value state
##    <dbl>       <dbl> <chr>
##  1  2021        880  AR   
##  2  2021        168  AR   
##  3  2018       1918  AR   
##  4  2015       3861  AR   
##  5  2021       4977. AR   
##  6  2021        421. AR   
##  7  2022      13300. AR   
##  8  2022       5828  AR   
##  9  2021      44478  AR   
## 10  2021        232. AR   
## # … with 10,680 more rows
…
