Reporting with Data in R - 11 Grouping by dates
…
Summarize and count the rows

hot100 |> 
  group_by(
    year(chart_date),
    performer
  ) |> 
  summarize(appearances = n()) |> 
  arrange(desc(appearances))

`summarise()` has grouped output by 'year(chart_date)'. You can override using
the `.groups` argument.

# A tibble: 22,953 × 3
# Groups:   year(chart_date) [65]
   `year(chart_date)` performer      appearances
                <dbl> <chr>                <int>
 1               1964 The Beatles            214
 2               2021 Olivia Rodrigo         172
 3               2018 Drake                  168
 4               2022 Bad Bunny              148
 5               2019 Billie Eilish          145
 6               2016 Drake                  134
 7               2015 The Weeknd             126
 8               2005 Kelly Clarkson         124
 9               2015 Drake                  124
10               2009 Taylor Swift           122
# ℹ 22,943 more rows
…
But notice how the year column name is kinda shite? We would not be able to easily reference that variable later, so we should rename that AS we make the group:

hot100 |> 
  group_by(
    yr = year(chart_date), # added "yr = " here
    performer
  ) |> 
  summarize(appearances = n()) |> 
  arrange(desc(appearances))

`summarise()` has grouped output by 'yr'. You can override using the `.groups`
argument.

# A tibble: 22,953 × 3
# Groups:   yr [65]
      yr performer      appearances
   <dbl> <chr>                <int>
 1  1964 The Beatles            214
 2  2021 Olivia Rodrigo         172
 3  2018 Drake                  168
 4  2022 Bad Bunny              148
 5  2019 Billie Eilish          145
 6  2016 Drake                  134
 7  2015 The Weeknd             126
 8  2005 Kelly Clarkson         124
 9  2015 Drake                  124
10  2009 Taylor Swift           122
# ℹ 22,943 more rows
…
