Chapter 17 Old - Transform | Reporting with Data in R
…
Let’s filter our ratings data to just those in AISD. We are going to use the %>% pipe function to do this to the ratings data frame.

Add a header ## Filter fun to your notebook.

Add text that you are looking for AISD schools.

Add a chunk, insert and run the following:

The first box shown here is the code. The second is the result. The result is prettier in RStudio.

ratings %>% 
  filter(distname == "AUSTIN ISD")

## # A tibble: 130 x 24
##    campus call_update campname cdalls cflaeatype cflaec cflalted cflchart
##    <chr>        <dbl> <chr>     <int> <chr>      <chr>  <chr>    <chr>   
##  1 22790…          NA AUSTIN …     90 <NA>       N      N        N       
##  2 22790…          NA LANIER …     83 <NA>       N      N        N       
##  3 22790…          NA MCCALLU…     93 <NA>       N      N        N       
##  4 22790…          NA REAGAN …     82 <NA>       N      N        N       
##  5 22790…          NA TRAVIS …     82 <NA>       N      N        N       
##  6 22790…          NA CROCKET…     86 <NA>       N      N        N       
##  7 22790…          NA ANDERSO…     92 <NA>       N      N        N       
##  8 22790…          NA ALTERNA…     NA <NA>       N      N        N       
##  9 22790…          NA BOWIE H…     92 <NA>       N      N        N       
## 10 22790…          NA LBJ HIG…     82 <NA>       N      N        N       
## # … with 120 more rows, and 16 more variables: cfldaep <chr>, cfleek <chr>,
## #   cfljj <chr>, cflnewcamp <chr>, cflrtf <chr>, cntyname <chr>, county <chr>,
## #   c_appeal_decision <chr>, c_rating <chr>, c_yrs_ir <chr>, distname <chr>,
## #   district <chr>, grdhigh <chr>, grdlow <chr>, grdspan <chr>, grdtype <chr>
…
If you want to combine a series of strings in your filter, you have to put them inside a “concatenate” function, which is shortened to c(), as in the example above. We’ll end up using this a lot.

17.10 Select()

As we’ve worked with our filters it has been onerous to tab through all the columns to check the result we want. The select() function allows you to choose which fields to display from a data frame. If we are only interested in some of the fields, like campname, distname and c_rating, then we we can pipe the results to a select function. It works by listing the column names inside the function. You can also use - before a column names to remove them (as opposed to listing those to keep.)

Add a new RMarkdown headline by adding the headline ## Select.

Create a new chunk, name it ratings-county and add the following and run it:

ratings %>% 
  filter(cntyname %in% c("TRAVIS", "WILLIAMSON", "HAYS")) %>% 
  select(distname, campname, cdalls)

## # A tibble: 529 x 3
##    distname                     campname                          cdalls
##    <chr>                        <chr>                              <int>
##  1 KATHERINE ANNE PORTER SCHOOL KATHERINE ANNE PORTER SCHOOL          67
##  2 TEXAS PREPARATORY SCHOOL     TEXAS PREPARATORY SCHOOL              48
##  3 TEXAS PREPARATORY SCHOOL     TEXAS PREPARATORY SCHOOL - AUSTIN     40
##  4 KI CHARTER ACADEMY           KI CHARTER ACADEMY                    NA
##  5 SAN MARCOS CISD              SAN MARCOS H S                        76
##  6 SAN MARCOS CISD              GOODNIGHT MIDDLE                      67
##  7 SAN MARCOS CISD              MILLER MIDDLE                         64
##  8 SAN MARCOS CISD              BOWIE EL                              73
##  9 SAN MARCOS CISD              CROCKETT EL                           81
## 10 SAN MARCOS CISD              DEZAVALA EL                           71
## # … with 519 more rows
…
dataframe %>% 
  arrange(column_name %>% desc())

So, let’s take our example data and sort it by schools who scored highest.

Add a headline ## Arrange.

Take the code below and add a chunk called ratings-highest and run it.

ratings %>% 
  filter(cntyname %in% c("TRAVIS", "WILLIAMSON", "HAYS")) %>% 
  select(distname, campname, cdalls) %>% 
  arrange(cdalls %>% desc())

## # A tibble: 529 x 3
##    distname                  campname                           cdalls
##    <chr>                     <chr>                               <int>
##  1 CHAPARRAL STAR ACADEMY    CHAPARRAL STAR ACADEMY                 98
##  2 AUSTIN ISD                RICHARDS SCH FOR YOUNG WOMEN LEADE     98
##  3 ROUND ROCK ISD            CANYON CREEK EL                        98
##  4 ROUND ROCK ISD            CACTUS RANCH EL                        98
##  5 KIPP TEXAS PUBLIC SCHOOLS KIPP UNITY PRI                         97
##  6 AUSTIN ISD                LASA H S                               97
##  7 AUSTIN ISD                KIKER EL                               97
##  8 EANES ISD                 FOREST TRAIL EL                        97
##  9 ROUND ROCK ISD            CANYON VISTA MIDDLE                    97
## 10 ROUND ROCK ISD            JAMES GARLAND WALSH MIDDLE             97
## # … with 519 more rows
…
