Chapter 10 Plotting for answers | Reporting with Data in R
…
Work one line at a time. Use read_csv() to find your data and load it onto the screen.

Once that is using, add a %>% and use the clean_names() function to fix the column names.

Once that is all good, edit the chunk to save the imported data into a new tibble called raw_data.

You shouldn’t need this.

raw_data <- read_csv("data-raw/Austin_Animal_Center_Intakes.csv") %>% clean_names()

# peek at the data
raw_data

## # A tibble: 132,214 × 12
##    animal_id name    date_time              month_year found_location intake_type
##    <chr>     <chr>   <chr>                  <chr>      <chr>          <chr>      
##  1 A786884   *Brock  01/03/2019 04:19:00 PM 01/03/201… 2501 Magin Me… Stray      
##  2 A706918   Belle   07/05/2015 12:59:00 PM 07/05/201… 9409 Bluegras… Stray      
##  3 A724273   Runster 04/14/2016 06:43:00 PM 04/14/201… 2818 Palomino… Stray      
##  4 A665644   <NA>    10/21/2013 07:59:00 AM 10/21/201… Austin (TX)    Stray      
##  5 A682524   Rio     06/29/2014 10:38:00 AM 06/29/201… 800 Grove Blv… Stray      
##  6 A743852   Odin    02/18/2017 12:46:00 PM 02/18/201… Austin (TX)    Owner Surr…
##  7 A635072   Beowulf 04/16/2019 09:53:00 AM 04/16/201… 415 East Mary… Public Ass…
##  8 A708452   Mumble  07/30/2015 02:37:00 PM 07/30/201… Austin (TX)    Public Ass…
##  9 A818975   <NA>    06/18/2020 02:53:00 PM 06/18/202… Braker Lane A… Stray      
## 10 A774147   <NA>    06/11/2018 07:45:00 AM 06/11/201… 6600 Elm Cree… Stray      
## # … with 132,204 more rows, and 6 more variables: intake_condition <chr>,
## #   animal_type <chr>, sex_upon_intake <chr>, age_upon_intake <chr>,
## #   breed <chr>, color <chr>
…
Inside your mutate, name your new column intake_date.

Set intake_date to = to str_sub(date_time, 1, 10).

Try it, and then check the last column of the data that comes back to make sure you actually have a 10-character string like “01/03/2019.”

Part of the answer

raw_data %>% 
  mutate(
    intake_date = str_sub(date_time, 1, 10)
  )

## # A tibble: 132,214 × 13
##    animal_id name    date_time              month_year found_location intake_type
##    <chr>     <chr>   <chr>                  <chr>      <chr>          <chr>      
##  1 A786884   *Brock  01/03/2019 04:19:00 PM 01/03/201… 2501 Magin Me… Stray      
##  2 A706918   Belle   07/05/2015 12:59:00 PM 07/05/201… 9409 Bluegras… Stray      
##  3 A724273   Runster 04/14/2016 06:43:00 PM 04/14/201… 2818 Palomino… Stray      
##  4 A665644   <NA>    10/21/2013 07:59:00 AM 10/21/201… Austin (TX)    Stray      
##  5 A682524   Rio     06/29/2014 10:38:00 AM 06/29/201… 800 Grove Blv… Stray      
##  6 A743852   Odin    02/18/2017 12:46:00 PM 02/18/201… Austin (TX)    Owner Surr…
##  7 A635072   Beowulf 04/16/2019 09:53:00 AM 04/16/201… 415 East Mary… Public Ass…
##  8 A708452   Mumble  07/30/2015 02:37:00 PM 07/30/201… Austin (TX)    Public Ass…
##  9 A818975   <NA>    06/18/2020 02:53:00 PM 06/18/202… Braker Lane A… Stray      
## 10 A774147   <NA>    06/11/2018 07:45:00 AM 06/11/201… 6600 Elm Cree… Stray      
## # … with 132,204 more rows, and 7 more variables: intake_condition <chr>,
## #   animal_type <chr>, sex_upon_intake <chr>, age_upon_intake <chr>,
## #   breed <chr>, color <chr>, intake_date <chr>
…
Create a new section noting you are plotting by month as a line.

Use count() to summarize the data by the yr_mo column. Name your new column count_animals.

Assign the result to a new oblject using <- named intakes_yrmo so we are on the same page.

I’m too nice

intakes_yrmo <- intakes %>% 
  count(yr_mo, name = "count_animals")

# peek
intakes_yrmo

## # A tibble: 69 × 2
##    yr_mo   count_animals
##    <chr>           <int>
##  1 2016-01          1216
##  2 2016-02          1194
##  3 2016-03          1419
##  4 2016-04          1560
##  5 2016-05          2037
##  6 2016-06          1634
##  7 2016-07          1409
##  8 2016-08          1653
##  9 2016-09          1539
## 10 2016-10          1387
## # … with 59 more rows
…
We’ll do this one together, but you’ll have to build a similar chart in a bit so pay attention.

10.14.1 Prepare the data with mo and yr

Start a new section that you are plotting intakes by month, split by year

Add the R chunk below

mo_yr_data <- intakes %>% 
  count(mo, yr, name = "count_animals")

# peek
mo_yr_data

## # A tibble: 69 × 3
##    mo       yr count_animals
##    <ord> <dbl>         <int>
##  1 Jan    2016          1216
##  2 Jan    2017          1216
##  3 Jan    2018          1123
##  4 Jan    2019          1240
##  5 Jan    2020          1215
##  6 Jan    2021           567
##  7 Feb    2016          1194
##  8 Feb    2017          1202
##  9 Feb    2018          1044
## 10 Feb    2019          1131
## # … with 59 more rows
…
