Chapter 15 Transform | Reporting with Data in R
…
From or count we know there are four types of schools: ALTERNATIVE INSTRUCTIONAL, DAEP INSTRUCTIONAL, JJAEP INSTRUCTIONAL and REGULAR INSTRUCTIONAL. Now that we know what the “regular” schools are called, we can build a filter to find them.

Add a header ## Filter fun to your notebook.

Add text that you filtering for regular schools.

Add a chunk, insert and run the following:

The first box shown here is the code. The second is the result. The result is prettier in RStudio.

sped %>% 
  filter(instruction_type == "REGULAR INSTRUCTIONAL")

## # A tibble: 7,372 × 10
##    school_name   district_name instruction_type  charter_type grade_range campus
##    <chr>         <chr>         <chr>             <chr>        <chr>       <chr> 
##  1 CAYUGA H S    CAYUGA ISD    REGULAR INSTRUCT… <NA>         '09-12      00190…
##  2 CAYUGA MIDDLE CAYUGA ISD    REGULAR INSTRUCT… <NA>         '06-08      00190…
##  3 CAYUGA EL     CAYUGA ISD    REGULAR INSTRUCT… <NA>         'EE-05      00190…
##  4 ELKHART H S   ELKHART ISD   REGULAR INSTRUCT… <NA>         '09-12      00190…
##  5 ELKHART MIDD… ELKHART ISD   REGULAR INSTRUCT… <NA>         '06-08      00190…
##  6 ELKHART EL    ELKHART ISD   REGULAR INSTRUCT… <NA>         'EE-02      00190…
##  7 ELKHART INT   ELKHART ISD   REGULAR INSTRUCT… <NA>         '03-05      00190…
##  8 FRANKSTON H S FRANKSTON ISD REGULAR INSTRUCT… <NA>         '09-12      00190…
##  9 FRANKSTON MI… FRANKSTON ISD REGULAR INSTRUCT… <NA>         '06-08      00190…
## 10 FRANKSTON EL  FRANKSTON ISD REGULAR INSTRUCT… <NA>         'EE-05      00190…
## # … with 7,362 more rows, and 4 more variables: sped_c_15 <dbl>,
## #   sped_p_15 <dbl>, sped_c_20 <dbl>, sped_p_20 <dbl>
…
15.10 Combining filters

You can filter for more than one thing at a time by using an operator: &, |. !.

Edit your existing code block to following code block and run it.

Then look at the code and the result and then write out what the filter is doing in your own words.

sped %>% 
  filter(
    instruction_type == "REGULAR INSTRUCTIONAL",
    charter_type %>% is.na()
  )

## # A tibble: 6,962 × 10
##    school_name   district_name instruction_type  charter_type grade_range campus
##    <chr>         <chr>         <chr>             <chr>        <chr>       <chr> 
##  1 CAYUGA H S    CAYUGA ISD    REGULAR INSTRUCT… <NA>         '09-12      00190…
##  2 CAYUGA MIDDLE CAYUGA ISD    REGULAR INSTRUCT… <NA>         '06-08      00190…
##  3 CAYUGA EL     CAYUGA ISD    REGULAR INSTRUCT… <NA>         'EE-05      00190…
##  4 ELKHART H S   ELKHART ISD   REGULAR INSTRUCT… <NA>         '09-12      00190…
##  5 ELKHART MIDD… ELKHART ISD   REGULAR INSTRUCT… <NA>         '06-08      00190…
##  6 ELKHART EL    ELKHART ISD   REGULAR INSTRUCT… <NA>         'EE-02      00190…
##  7 ELKHART INT   ELKHART ISD   REGULAR INSTRUCT… <NA>         '03-05      00190…
##  8 FRANKSTON H S FRANKSTON ISD REGULAR INSTRUCT… <NA>         '09-12      00190…
##  9 FRANKSTON MI… FRANKSTON ISD REGULAR INSTRUCT… <NA>         '06-08      00190…
## 10 FRANKSTON EL  FRANKSTON ISD REGULAR INSTRUCT… <NA>         'EE-05      00190…
## # … with 6,952 more rows, and 4 more variables: sped_c_15 <dbl>,
## #   sped_p_15 <dbl>, sped_c_20 <dbl>, sped_p_20 <dbl>
…
Assign the result to a new data frame called sped_reg.

Print the data frame to the screen so you can poke around.

sped_reg <- sped %>% 
  filter(
    instruction_type == "REGULAR INSTRUCTIONAL",
    charter_type %>% is.na()
  ) %>% 
  select(-charter_type, -instruction_type)

sped_reg

## # A tibble: 6,962 × 8
##    school_name   district_name grade_range campus  sped_c_15 sped_p_15 sped_c_20
##    <chr>         <chr>         <chr>       <chr>       <dbl>     <dbl>     <dbl>
##  1 CAYUGA H S    CAYUGA ISD    '09-12      001902…        37      18          34
##  2 CAYUGA MIDDLE CAYUGA ISD    '06-08      001902…        16      13.3        17
##  3 CAYUGA EL     CAYUGA ISD    'EE-05      001902…        23       9.2        31
##  4 ELKHART H S   ELKHART ISD   '09-12      001903…        33       9.3        44
##  5 ELKHART MIDD… ELKHART ISD   '06-08      001903…        36      11.8        29
##  6 ELKHART EL    ELKHART ISD   'EE-02      001903…        29       9.6        48
##  7 ELKHART INT   ELKHART ISD   '03-05      001903…        27      10.5        26
##  8 FRANKSTON H S FRANKSTON ISD '09-12      001904…        28      12.6        19
##  9 FRANKSTON MI… FRANKSTON ISD '06-08      001904…        16       9.2        28
## 10 FRANKSTON EL  FRANKSTON ISD 'EE-05      001904…        34       8.4        44
## # … with 6,952 more rows, and 1 more variable: sped_p_20 <dbl>
…
