Chapter 6 Summarize with math - analysis | Reporting with Data in R
…
6.4.1 Summaries with math

We’ll start with the total_quantity.

Add a new section (headline, text and chunk) that describes the first quest: For each agency in Texas, find the summed quantity and summed total value of the equipment they received.

Add the code below into the chunk and run it.

tx %>% 
  group_by(agency_name) %>% 
  summarize(
    sum_quantity = sum(quantity)
  )

## # A tibble: 356 × 2
##    agency_name                     sum_quantity
##    <chr>                                  <dbl>
##  1 ABERNATHY POLICE DEPT                     13
##  2 ALLEN POLICE DEPT                         11
##  3 ALVARADO ISD PD                            4
##  4 ALVIN POLICE DEPT                        508
##  5 ANDERSON COUNTY SHERIFFS OFFICE            7
##  6 ANDREWS COUNTY SHERIFF OFFICE             12
##  7 ANSON POLICE DEPT                          9
##  8 ANTHONY POLICE DEPT                       10
##  9 ARANSAS PASS POLICE DEPARTMENT            27
## 10 ARCHER COUNTY SHERIFF OFFICE               3
## # … with 346 more rows
…
Edit your summary chunk to:

Add add a comma after the first summarize action.

Add the new expression to give us the sum_total_value and run it.

tx %>% 
  group_by(agency_name) %>% 
  summarize(
    sum_quantity = sum(quantity),
    sum_total_value = sum(total_value)
  )

## # A tibble: 356 × 3
##    agency_name                     sum_quantity sum_total_value
##    <chr>                                  <dbl>           <dbl>
##  1 ABERNATHY POLICE DEPT                     13          66084.
##  2 ALLEN POLICE DEPT                         11        1404024 
##  3 ALVARADO ISD PD                            4            480 
##  4 ALVIN POLICE DEPT                        508        2504765.
##  5 ANDERSON COUNTY SHERIFFS OFFICE            7         733720 
##  6 ANDREWS COUNTY SHERIFF OFFICE             12           1476 
##  7 ANSON POLICE DEPT                          9           5077 
##  8 ANTHONY POLICE DEPT                       10           7490 
##  9 ARANSAS PASS POLICE DEPARTMENT            27         503658 
## 10 ARCHER COUNTY SHERIFF OFFICE               3        1101000 
## # … with 346 more rows
6.4.3 Arrange the results

OK, this gives us our answers, but in alphabetical order. We want to arrange the data so it gives us the most sum_total_value in descending order.

EDIT your block to add an arrange() function below

tx %>% 
  group_by(agency_name) %>% 
  summarize(
    sum_quantity = sum(quantity),
    sum_total_value = sum(total_value)
  ) %>% 
  arrange(sum_total_value %>% desc())

## # A tibble: 356 × 3
##    agency_name                      sum_quantity sum_total_value
##    <chr>                                   <dbl>           <dbl>
##  1 HOUSTON POLICE DEPT                      5467        9140513.
##  2 JEFFERSON COUNTY SHERIFFS OFFICE          270        3464365.
##  3 DPS SWAT- TEXAS RANGERS                  1461        3317967.
##  4 PARKS AND WILDLIFE DEPT                  9306        3236996.
##  5 SAN MARCOS POLICE DEPT                   1050        3090552.
##  6 HARRIS COUNTY SHERIFF'S OFFICE            835        2941507.
##  7 AUSTIN POLICE DEPT                       1438        2732120.
##  8 ALVIN POLICE DEPT                         508        2504765.
##  9 MILAM COUNTY SHERIFF DEPT                  99        2469525.
## 10 HARRIS COUNTY CONSTABLE PCT 3             292        2376779.
## # … with 346 more rows
…
Add a new line that prints the result to the screen so you can still see it.

# adding the new tibble object in next line
tx_quants_totals <- tx %>% 
  group_by(agency_name) %>% 
  summarize(
    sum_quantity = sum(quantity),
    sum_total_value = sum(total_value)
  ) %>% 
  arrange(sum_total_value %>% desc())

# peek at the result
tx_quants_totals

## # A tibble: 356 × 3
##    agency_name                      sum_quantity sum_total_value
##    <chr>                                   <dbl>           <dbl>
##  1 HOUSTON POLICE DEPT                      5467        9140513.
##  2 JEFFERSON COUNTY SHERIFFS OFFICE          270        3464365.
##  3 DPS SWAT- TEXAS RANGERS                  1461        3317967.
##  4 PARKS AND WILDLIFE DEPT                  9306        3236996.
##  5 SAN MARCOS POLICE DEPT                   1050        3090552.
##  6 HARRIS COUNTY SHERIFF'S OFFICE            835        2941507.
##  7 AUSTIN POLICE DEPT                       1438        2732120.
##  8 ALVIN POLICE DEPT                         508        2504765.
##  9 MILAM COUNTY SHERIFF DEPT                  99        2469525.
## 10 HARRIS COUNTY CONSTABLE PCT 3             292        2376779.
## # … with 346 more rows
…
Use summarize to build the summed_quantity and summed_total_value columns.

Arrange the results so the most expensive items are at the top.

tx %>% 
  filter(agency_name == "AUSTIN POLICE DEPT") %>% 
  group_by(item_name) %>% 
  summarize(
    summed_quantity = sum(quantity),
    summed_total_value = sum(total_value)
  ) %>% 
  arrange(summed_total_value %>% desc())

## # A tibble: 41 × 3
##    item_name                                   summed_quantity summed_total_val…
##    <chr>                                                 <dbl>             <dbl>
##  1 HELICOPTER,FLIGHT TRAINER                                 1           833400 
##  2 IMAGE INTENSIFIER,NIGHT VISION                           85           467847.
##  3 SIGHT,THERMAL                                            29           442310 
##  4 PACKBOT 510 WITH FASTAC REMOTELY CONTROLLE…               4           308000 
##  5 SIGHT,REFLEX                                            420           144245.
##  6 ILLUMINATOR,INTEGRATED,SMALL ARMS                       135           122302 
##  7 RECON SCOUT XT                                            8            92451.
##  8 RECON SCOUT XT,SPEC                                       6            81900 
##  9 TEST SET,NIGHT VISION VIEWER                              2            55610 
## 10 PICKUP                                                    2            38075 
## # … with 31 more rows
…
