Chapter 5 Summarize with math - import | Reporting with Data in R
…
## Rows: 129348 Columns: 12

## ── Column specification ────────────────────────────────────────────────────────
## Delimiter: ","
## chr  (7): state, agency_name, nsn, item_name, ui, demil_code, station_type
## dbl  (4): sheet, quantity, acquisition_value, demil_ic
## dttm (1): ship_date

## 
## ℹ Use `spec()` to retrieve the full column specification for this data.
## ℹ Specify the column types or set `show_col_types = FALSE` to quiet this message.

leso

## # A tibble: 129,348 × 12
##    sheet state agency_name           nsn   item_name quantity ui    acquisition_val…
##    <dbl> <chr> <chr>                 <chr> <chr>        <dbl> <chr>            <dbl>
##  1     1 AL    ABBEVILLE POLICE DEPT 1005… MOUNT,RI…       10 Each             1626 
##  2     1 AL    ABBEVILLE POLICE DEPT 1240… SIGHT,RE…        9 Each              333 
##  3     1 AL    ABBEVILLE POLICE DEPT 1240… OPTICAL …        1 Each              246.
##  4     1 AL    ABBEVILLE POLICE DEPT 1385… UNMANNED…        1 Each            10000 
##  5     1 AL    ABBEVILLE POLICE DEPT 2320… TRUCK,UT…        1 Each            62627 
##  6     1 AL    ABBEVILLE POLICE DEPT 2320… TRUCK,UT…        1 Each            62627 
##  7     1 AL    ABBEVILLE POLICE DEPT 2355… MINE RES…        1 Each           658000 
##  8     1 AL    ABBEVILLE POLICE DEPT 2540… BALLISTI…       10 Kit             15872.
##  9     1 AL    ABBEVILLE POLICE DEPT 5855… ILLUMINA…       10 Each              926 
## 10     1 AL    ABBEVILLE POLICE DEPT 6760… CAMERA R…        1 Each             1500 
## # … with 129,338 more rows, and 4 more variables: demil_code <chr>,
## #   demil_ic <dbl>, ship_date <dttm>, station_type <chr>
…
Create a new section with headlines and text that denote you are filtering the data to Texas and since Jan. 1, 2010

Create the code chunk and start your filter process using the leso_total tibble.

Use filter() on the state column to keep all rows with “TX.”

Really, you got this.

leso_total %>% 
  filter(
    state == "TX"
  )

## # A tibble: 8,684 × 9
##    state agency_name           item_name                    quantity ui    acquisition_val…
##    <chr> <chr>                 <chr>                           <dbl> <chr>            <dbl>
##  1 TX    ABERNATHY POLICE DEPT PISTOL,CALIBER .45,AUTOMATIC        1 Each              58.7
##  2 TX    ABERNATHY POLICE DEPT PISTOL,CALIBER .45,AUTOMATIC        1 Each              58.7
##  3 TX    ABERNATHY POLICE DEPT PISTOL,CALIBER .45,AUTOMATIC        1 Each              58.7
##  4 TX    ABERNATHY POLICE DEPT PISTOL,CALIBER .45,AUTOMATIC        1 Each              58.7
##  5 TX    ABERNATHY POLICE DEPT PISTOL,CALIBER .45,AUTOMATIC        1 Each              58.7
##  6 TX    ABERNATHY POLICE DEPT RIFLE,5.56 MILLIMETER               1 Each             749  
##  7 TX    ABERNATHY POLICE DEPT RIFLE,5.56 MILLIMETER               1 Each             749  
##  8 TX    ABERNATHY POLICE DEPT SIGHT,REFLEX                        5 Each             333  
##  9 TX    ABERNATHY POLICE DEPT TRUCK,UTILITY                       1 Each           62627  
## 10 TX    ABILENE POLICE DEPT   RIFLE,5.56 MILLIMETER               1 Each             499  
## # … with 8,674 more rows, and 3 more variables: ship_date <dttm>,
## #   station_type <chr>, total_value <dbl>
How do you know if it worked? Well the first column in the data is the state column, so they should all start with “TX.” Also note you started with nearly 130k observations (rows), and there are only 8,600+ in Texas.

5.4.8.2 Add the date filter

Now, EDIT THAT SAME CHUNK to add a new part to your filter to also get rows with a ship_date of 2010-01-01 or later.

If you do this on your own, treat yourself to a cookie

leso_total %>% 
  filter(
    state == "TX",
    ship_date >= "2010-01-01"
  )

## # A tibble: 7,407 × 9
##    state agency_name           item_name                    quantity ui    acquisition_val…
##    <chr> <chr>                 <chr>                           <dbl> <chr>            <dbl>
##  1 TX    ABERNATHY POLICE DEPT PISTOL,CALIBER .45,AUTOMATIC        1 Each              58.7
##  2 TX    ABERNATHY POLICE DEPT PISTOL,CALIBER .45,AUTOMATIC        1 Each              58.7
##  3 TX    ABERNATHY POLICE DEPT PISTOL,CALIBER .45,AUTOMATIC        1 Each              58.7
##  4 TX    ABERNATHY POLICE DEPT PISTOL,CALIBER .45,AUTOMATIC        1 Each              58.7
##  5 TX    ABERNATHY POLICE DEPT PISTOL,CALIBER .45,AUTOMATIC        1 Each              58.7
##  6 TX    ABERNATHY POLICE DEPT RIFLE,5.56 MILLIMETER               1 Each             749  
##  7 TX    ABERNATHY POLICE DEPT RIFLE,5.56 MILLIMETER               1 Each             749  
##  8 TX    ABERNATHY POLICE DEPT SIGHT,REFLEX                        5 Each             333  
##  9 TX    ABERNATHY POLICE DEPT TRUCK,UTILITY                       1 Each           62627  
## 10 TX    ALLEN POLICE DEPT     SIGHT,REFLEX                        1 Each             333  
## # … with 7,397 more rows, and 3 more variables: ship_date <dttm>,
## #   station_type <chr>, total_value <dbl>
…
