Reporting with Data in R - 6 Summarize: math - analysis
…
6.6.1 Group_by, then summary with math

We’ll start with the total_quantity.

Add a new section (headline, text and chunk) that describes the second quest: For each agency in Texas, find the summed quantity and summed total value of the equipment they received.

Add the code below into the chunk and run it.

tx_c |> 
  group_by(agency_name) |> 
  summarize(
    summed_quantity = sum(quantity)
  )

# A tibble: 335 × 2
   agency_name                     summed_quantity
   <chr>                                     <dbl>
 1 ABERNATHY POLICE DEPT                         6
 2 ALLEN POLICE DEPT                            11
 3 ALVARADO ISD PD                               4
 4 ALVIN POLICE DEPT                           478
 5 ANDERSON COUNTY SHERIFFS OFFICE               7
 6 ANDREWS COUNTY SHERIFF OFFICE                12
 7 ANSON POLICE DEPT                             9
 8 ANTHONY POLICE DEPT                          10
 9 ARANSAS PASS POLICE DEPARTMENT               28
10 ARCHER COUNTY SHERIFF OFFICE                  3
# ℹ 325 more rows
…
Edit your summary chunk to:

Add add a comma after the first summarize action.

Add the new expression to give us the summed_total_value and run it.

tx_c |> 
  group_by(agency_name) |> 
  summarize(
    summed_quantity = sum(quantity),
    summed_total_value = sum(total_value)
  )

# A tibble: 335 × 3
   agency_name                     summed_quantity summed_total_value
   <chr>                                     <dbl>              <dbl>
 1 ABERNATHY POLICE DEPT                         6             64292 
 2 ALLEN POLICE DEPT                            11           1404528 
 3 ALVARADO ISD PD                               4               480 
 4 ALVIN POLICE DEPT                           478           2436004.
 5 ANDERSON COUNTY SHERIFFS OFFICE               7            733720 
 6 ANDREWS COUNTY SHERIFF OFFICE                12              1476 
 7 ANSON POLICE DEPT                             9              5329 
 8 ANTHONY POLICE DEPT                          10              7490 
 9 ARANSAS PASS POLICE DEPARTMENT               28            515396.
10 ARCHER COUNTY SHERIFF OFFICE                  3           1101000 
# ℹ 325 more rows
6.6.3 Arrange the results

OK, this gives us our answers, but in alphabetical order. We want to arrange the data so it gives us the most summed_total_value in descending order.

EDIT your block to add an arrange() function below

tx_c |> 
  group_by(agency_name) |> 
  summarize(
    summed_quantity = sum(quantity),
    summed_total_value = sum(total_value)
  ) |> 
  arrange(summed_total_value |> desc())

# A tibble: 335 × 3
   agency_name                       summed_quantity summed_total_value
   <chr>                                       <dbl>              <dbl>
 1 HOUSTON POLICE DEPT                          2384           7322064.
 2 JEFFERSON COUNTY SHERIFFS OFFICE              206           3412547.
 3 SAN MARCOS POLICE DEPT                        600           3200702.
 4 DPS SWAT- TEXAS RANGERS                       137           3015221 
 5 AUSTIN POLICE DEPT                           1392           2622087.
 6 ALVIN POLICE DEPT                             478           2436004.
 7 HARRIS COUNTY CONSTABLE PCT 3                 291           2321126.
 8 MILAM COUNTY SHERIFF DEPT                      83           2196952.
 9 HARRIS COUNTY SHERIFF'S OFFICE                 16           1834141 
10 VAN ZANDT COUNTY SHERIFF'S OFFICE              45           1789636.
# ℹ 325 more rows
…
Add a new line that prints the result to the screen so you can still see it.

# adding the new tibble object in next line
tx_agency_totals <- tx_c |> 
  group_by(agency_name) |> 
  summarize(
    summed_quantity = sum(quantity),
    summed_total_value = sum(total_value)
  ) |> 
  arrange(summed_total_value |> desc())

# peek at the result
tx_agency_totals

# A tibble: 335 × 3
   agency_name                       summed_quantity summed_total_value
   <chr>                                       <dbl>              <dbl>
 1 HOUSTON POLICE DEPT                          2384           7322064.
 2 JEFFERSON COUNTY SHERIFFS OFFICE              206           3412547.
 3 SAN MARCOS POLICE DEPT                        600           3200702.
 4 DPS SWAT- TEXAS RANGERS                       137           3015221 
 5 AUSTIN POLICE DEPT                           1392           2622087.
 6 ALVIN POLICE DEPT                             478           2436004.
 7 HARRIS COUNTY CONSTABLE PCT 3                 291           2321126.
 8 MILAM COUNTY SHERIFF DEPT                      83           2196952.
 9 HARRIS COUNTY SHERIFF'S OFFICE                 16           1834141 
10 VAN ZANDT COUNTY SHERIFF'S OFFICE              45           1789636.
# ℹ 325 more rows
…
`summarise()` has grouped output by 'agency_name'. You can override using the
`.groups` argument.

# peek at the result
tx_agency_item_totals

# A tibble: 1,548 × 4
# Groups:   agency_name [335]
   agency_name                      item_name summed_quantity summed_total_value
   <chr>                            <chr>               <dbl>              <dbl>
 1 HOUSTON POLICE DEPT              AIRCRAFT…               1            5390000
 2 DPS SWAT- TEXAS RANGERS          MINE RES…               4            2611000
 3 DEPT OF CRIM JUSTICE OIG         TRUCK,CA…               4            1446516
 4 UNIV OF TEXAS SYSTEM POLICE HI_… MINE RES…               2            1228000
 5 JEFFERSON COUNTY SHERIFFS OFFICE HELICOPT…               1             922704
 6 ALVIN POLICE DEPT                HOIST,IN…               6             900420
 7 VAN ZANDT COUNTY SHERIFF'S OFFI… TRUCK,WR…               1             880674
 8 BURKBURNETT POLICE DEPT          MINE RES…               1             865000
 9 CLEBURNE POLICE DEPT             MINE RES…               1             865000
10 CUERO POLICE DEPT                MINE RES…               1             865000
# ℹ 1,538 more rows
…
OF NOTE: With that last code chunk you’ll see a warning in your R Console: summarise() has grouped output by ‘agency_name’. You can override using the .groups argument. This is not a problem, it’s just a reminder that when we group by more than one thing, the first grouping is retained when future functions are applied to this result. It’s more confusing than helpful, to be honest. Just know if we wanted to do further manipulation, we might need to use ungroup() first.

6.8.1 Items for local agencies

Just like we did for our agency totals, we want to filter this list of items to those sent to our local agencies. However, this time we’ve already created the list of local agencies so we don’t have to redo that part … we just need to filter by it.

Start a new section (headline, text) and explain that you are looking at items sent to local agencies.

Use filter() to focus the data just on or local_agencies.

tx_agency_item_totals |> 
  filter(agency_name %in% local_agencies)

# A tibble: 175 × 4
# Groups:   agency_name [19]
   agency_name                      item_name summed_quantity summed_total_value
   <chr>                            <chr>               <dbl>              <dbl>
 1 UNIV OF TEXAS SYSTEM POLICE HI_… MINE RES…               2           1228000 
 2 AUSTIN POLICE DEPT               HELICOPT…               1            833400 
 3 TRAVIS COUNTY SHERIFFS OFFICE    MINE RES…               1            767360 
 4 CEDAR PARK POLICE DEPT           MINE RES…               1            733000 
 5 GEORGETOWN POLICE DEPT           MINE RES…               1            733000 
 6 LEANDER POLICE DEPT              MINE RES…               1            733000 
 7 SAN MARCOS POLICE DEPT           MINE RES…               1            733000 
 8 BASTROP COUNTY SHERIFF'S OFFICE  MINE RES…               1            658000 
 9 SAN MARCOS POLICE DEPT           CAPABILI…               1            494724 
10 AUSTIN POLICE DEPT               IMAGE IN…              85            458831.
# ℹ 165 more rows

Because our original list arranged the data by the most expensive items, we can see that here. But it might be easier to rearrange the data by agency name first, then the most expensive items.

EDIT your chunk to add an arrange function.

Within the arrange, set it to agency_name first, then summed_total_value in descending order.

tx_agency_item_totals |> 
  filter(agency_name %in% local_agencies) |> 
  arrange(agency_name, desc(summed_total_value))

# A tibble: 175 × 4
# Groups:   agency_name [19]
   agency_name        item_name               summed_quantity summed_total_value
   <chr>              <chr>                             <dbl>              <dbl>
 1 AUSTIN POLICE DEPT HELICOPTER,FLIGHT TRAI…               1            833400 
 2 AUSTIN POLICE DEPT IMAGE INTENSIFIER,NIGH…              85            458831.
 3 AUSTIN POLICE DEPT SIGHT,THERMAL                        29            442310 
 4 AUSTIN POLICE DEPT PACKBOT 510 WITH FASTA…               4            308000 
 5 AUSTIN POLICE DEPT SIGHT,REFLEX                        420            169256.
 6 AUSTIN POLICE DEPT ILLUMINATOR,INTEGRATED…             135            122302 
 7 AUSTIN POLICE DEPT RECON SCOUT XT                        8             92451.
 8 AUSTIN POLICE DEPT TEST SET,NIGHT VISION …               2             55610 
 9 AUSTIN POLICE DEPT SCOPE,NIGHT-POCKET                    5             20535 
10 AUSTIN POLICE DEPT POWER SUPPLY ASSEMBLY                63             20086.
# ℹ 165 more rows
…
Simply search for the items on Google, like this.

Each item has a “National Stock Number,” which is an ID for a government database of supplies. You can search the data for the nsn value and then look up that value online.

Let do an example, looking up “ILLUMINATOR,INTEGRATED,SMALL ARMS”. First we filter the data to find the item. (I’m also using select so we can control the output and see it in this book, but you might not want that in your notebook so you can also check ship_dates, etc.)

tx_c |> 
  filter(
    item_name == "ILLUMINATOR,INTEGRATED,SMALL ARMS",
    agency_name == "AUSTIN POLICE DEPT"
    ) |> 
  select(item_name, nsn)

# A tibble: 100 × 2
   item_name                         nsn             
   <chr>                             <chr>           
 1 ILLUMINATOR,INTEGRATED,SMALL ARMS 5855-01-534-5931
 2 ILLUMINATOR,INTEGRATED,SMALL ARMS 5855-01-534-5931
 3 ILLUMINATOR,INTEGRATED,SMALL ARMS 5855-01-571-1258
 4 ILLUMINATOR,INTEGRATED,SMALL ARMS 5855-01-534-5931
 5 ILLUMINATOR,INTEGRATED,SMALL ARMS 5855-01-534-5931
 6 ILLUMINATOR,INTEGRATED,SMALL ARMS 5855-01-534-5931
 7 ILLUMINATOR,INTEGRATED,SMALL ARMS 5855-01-534-5931
 8 ILLUMINATOR,INTEGRATED,SMALL ARMS 5855-01-534-5931
 9 ILLUMINATOR,INTEGRATED,SMALL ARMS 5855-01-534-5931
10 ILLUMINATOR,INTEGRATED,SMALL ARMS 5855-01-534-5931
# ℹ 90 more rows
…
