Reporting with Data in R - 8 Tidy data
…
Add a Markdown section noting that you are importing data.

Add this import chunk and run it.

# save the url
class_data <- "https://docs.google.com/spreadsheets/d/e/2PACX-1vRCGayKLOy-52gKmEoPOj3ZKnOQVtCiooSloiCr-i_ci27e4n1CMPL0Z9s6MeFX9oQuN9E-HCFJnWjD/pub?gid=1456715839&single=true&output=csv"

# read the data, clean names and save into the object "raw_data"
raw_data <- read_csv(class_data) |> clean_names()

# peek at the data
raw_data

# A tibble: 106 × 11
   timestamp  first_name last_name candy_type box_code   red green orange yellow
   <chr>      <chr>      <chr>     <chr>      <chr>    <dbl> <dbl>  <dbl>  <dbl>
 1 2/21/2022… Christian  McDonald  Plain      140BSCL…     2    17     11      4
 2 2/28/2022… Andrew     Logan     Plain      140BSCL…     2     9     14      4
 3 2/28/2022… Gabby      Ybarra    Plain      140BSCL…     4    11     14      0
 4 2/28/2022… Veronica   Apodaca   Plain      140BSCL…     1    17     16      2
 5 2/28/2022… Cristela   Jones     Plain      140BSCL…     3    19     14      3
 6 2/28/2022… Marina     Garcia    Plain      140BSCL…     7    11     13      1
 7 2/28/2022… Samuel     Stark     Plain      140BSCL…     3     9     10      5
 8 2/28/2022… Kevin      Malcolm … Plain      140BSCL…     4    15     13      6
 9 2/28/2022… Alexa      Haverlah  Plain      140BSCL…     5    15      6      2
10 2/28/2022… Zacharia   Washingt… Plain      140BSCL…     1    15     14      1
# ℹ 96 more rows
# ℹ 2 more variables: blue <dbl>, brown <dbl>
…
