Chapter 4 Wrangle | Reporting with Data in R
…
This is where summarize()’s close friend group_by() comes in.

4.5.3 Group by

Here is a weird thing about group_by(): It is always followed by another function. It really just pre-sorts data into groups so that whatever function is applied after happens within each individual group.

If add a group_by() on our performers before our summarize function, it will put all of the “Aerosmith” rows together, then all the “Bad Company” rows together, etc. and then we count the rows within those groups.

Modify your code block to add the group_by:

hot100 %>%
  group_by(performer) %>% 
  summarize(appearances = n())

## # A tibble: 10,061 × 2
##    performer                            appearances
##    <chr>                                      <int>
##  1 "? (Question Mark) & The Mysterians"          33
##  2 "'N Sync"                                    172
##  3 "'N Sync & Gloria Estefan"                    20
##  4 "'N Sync Featuring Nelly"                     20
##  5 "'Til Tuesday"                                53
##  6 "\"Groove\" Holmes"                           14
##  7 "\"Little\" Jimmy Dickens"                    10
##  8 "\"Pookie\" Hudson"                            1
##  9 "\"Weird Al\" Yankovic"                       91
## 10 "(+44)"                                        1
## # … with 10,051 more rows
…
That’s great, but who had the most?

4.5.4 Arrange the results

Remember in our last notebook when we had to sort the songs by date. We’ll use the same arrange() function here, but we’ll change the result to descending order, because journalists almost always want to know the most of something.

Add the pipe and arrange function below and run it, then I’ll explain.

hot100 %>%
  group_by(performer) %>% 
  summarize(appearances = n()) %>% 
  arrange(appearances %>% desc())

## # A tibble: 10,061 × 2
##    performer     appearances
##    <chr>               <int>
##  1 Taylor Swift         1022
##  2 Elton John            889
##  3 Madonna               857
##  4 Kenny Chesney         758
##  5 Drake                 746
##  6 Tim McGraw            731
##  7 Keith Urban           673
##  8 Stevie Wonder         659
##  9 Rod Stewart           657
## 10 Mariah Carey          621
## # … with 10,051 more rows
…
Since we have our answer here and we’re not using the result later, we don’t need to create a new tibble or anything.

4.5.6 A shortcut: count()

You are going to think I’m a horrible person, but there is an easier way to do this …

We count stuff in data science (and journalism) all the time. Because of this tidyverse has a shortcut to group and count rows of data. I needed to show you the long way because a) we will use group_by() and summarize() with other math that isn’t just counting rows, and b) you need to understand what is happening when you use count(), which is really just using group_by/summarize underneath.

The count() function takes the columns you want to group and then does the summarize on n() for you:

hot100 %>% 
  count(performer)

## # A tibble: 10,061 × 2
##    performer                                n
##    <chr>                                <int>
##  1 "? (Question Mark) & The Mysterians"    33
##  2 "'N Sync"                              172
##  3 "'N Sync & Gloria Estefan"              20
##  4 "'N Sync Featuring Nelly"               20
##  5 "'Til Tuesday"                          53
##  6 "\"Groove\" Holmes"                     14
##  7 "\"Little\" Jimmy Dickens"              10
##  8 "\"Pookie\" Hudson"                      1
##  9 "\"Weird Al\" Yankovic"                 91
## 10 "(+44)"                                  1
## # … with 10,051 more rows
…
!is.na(x)
Is not NA

4.6.3 Filter for week_position

Now that we’ve seen how filter works, let’s see it in action:

Start a new section with a headline and text of what you are doing.

Add a code chunk and add the following:

hot100 %>% 
  filter(week_position == 1)

## # A tibble: 3,279 × 7
##    week_id    week_position song      performer   previous_week_p… peak_position
##    <date>             <dbl> <chr>     <chr>                  <dbl>         <dbl>
##  1 1958-08-02             1 Poor Lit… Ricky Nels…               NA             1
##  2 1958-08-09             1 Poor Lit… Ricky Nels…                1             1
##  3 1958-08-16             1 Nel Blu … Domenico M…                2             1
##  4 1958-08-23             1 Little S… The Elegan…                2             1
##  5 1958-08-30             1 Nel Blu … Domenico M…                2             1
##  6 1958-09-06             1 Nel Blu … Domenico M…                1             1
##  7 1958-09-13             1 Nel Blu … Domenico M…                1             1
##  8 1958-09-20             1 Nel Blu … Domenico M…                1             1
##  9 1958-09-27             1 It's All… Tommy Edwa…                3             1
## 10 1958-10-04             1 It's All… Tommy Edwa…                1             1
## # … with 3,269 more rows, and 1 more variable: weeks_on_chart <dbl>
…
If you look at our original filter result, you now only have No. 1 songs. But also note that Ricky Nelson’s Poor Little Fool is listed more than once (as are other songs.) That’s because it was No. 1 on more than one week.

4.6.5 Using distinct()

Our next challenge in our logic is to show only unique song and performer combinations. We do this with distinct().

We feed the distinct() function with the variables we want to consider together, in our case the song and performer. All other columns are dropped since including them would mess up their distinctness.

Add the distinct() function to your code chunk.

hot100 %>% 
  filter(week_position == 1) %>% 
  distinct(song, performer)

## # A tibble: 1,124 × 2
##    song                            performer                       
##    <chr>                           <chr>                           
##  1 Poor Little Fool                Ricky Nelson                    
##  2 Nel Blu Dipinto Di Blu (Volaré) Domenico Modugno                
##  3 Little Star                     The Elegants                    
##  4 It's All In The Game            Tommy Edwards                   
##  5 It's Only Make Believe          Conway Twitty                   
##  6 Tom Dooley                      The Kingston Trio               
##  7 To Know Him, Is To Love Him     The Teddy Bears                 
##  8 The Chipmunk Song               The Chipmunks With David Seville
##  9 Smoke Gets In Your Eyes         The Platters                    
## 10 Stagger Lee                     Lloyd Price                     
## # … with 1,114 more rows
…
Now that we have our list of No. 1 songs, we can “count” the number of times a performer is in the list to know how many No. 1 songs they have.

We’ll use the group_by/summarize combination for this. We group_by() the performer, and then we find the number n() of rows in each group. Lastly, we need to arrange() to get the most on the top.

Add the steps for the group_by, summarize and arrange functions:

hot100 %>% 
  filter(week_position == 1) %>%
  distinct(song, performer) %>%
  group_by(performer) %>%
  summarize(no1_hits = n()) %>%
  arrange(no1_hits %>% desc())

## # A tibble: 744 × 2
##    performer          no1_hits
##    <chr>                 <int>
##  1 The Beatles              19
##  2 Mariah Carey             16
##  3 Madonna                  12
##  4 Michael Jackson          11
##  5 Whitney Houston          11
##  6 The Supremes             10
##  7 Bee Gees                  9
##  8 The Rolling Stones        8
##  9 Janet Jackson             7
## 10 Stevie Wonder             7
## # … with 734 more rows
…
