Chapter 7 Data Viz - Intro to ggplot | Reporting with Data in R
…
Remove the boilerplate and create a setup section that loads library(tidyverse), like we do with every notebook. The ggplot package is a part of tidyverse, so when you load tidyverse, you’ll load ggplot. We will also load janitor, which we will load to use the clean_names() function.

7.4 The layers of ggplot

Much of this first plot explanation comes from Hadley Wickham’s R for Data Science, with edits to fit the lesson here.

To explore how ggplot works, we’re going to work with some data that already comes with tidyverse. Let’s take a look at it now.

Start a new section “First plot” and add a code chunk.

Add the code below and run it to see what the mpg dataset looks like.

mpg

## # A tibble: 234 × 11
##    manufacturer model      displ  year   cyl trans drv     cty   hwy fl    class
##    <chr>        <chr>      <dbl> <int> <int> <chr> <chr> <int> <int> <chr> <chr>
##  1 audi         a4           1.8  1999     4 auto… f        18    29 p     comp…
##  2 audi         a4           1.8  1999     4 manu… f        21    29 p     comp…
##  3 audi         a4           2    2008     4 manu… f        20    31 p     comp…
##  4 audi         a4           2    2008     4 auto… f        21    30 p     comp…
##  5 audi         a4           2.8  1999     6 auto… f        16    26 p     comp…
##  6 audi         a4           2.8  1999     6 manu… f        18    26 p     comp…
##  7 audi         a4           3.1  2008     6 auto… f        18    27 p     comp…
##  8 audi         a4 quattro   1.8  1999     4 manu… 4        18    26 p     comp…
##  9 audi         a4 quattro   1.8  1999     4 auto… 4        16    25 p     comp…
## 10 audi         a4 quattro   2    2008     4 manu… 4        20    28 p     comp…
## # … with 224 more rows
…
# read the data and create an tibble object called "class"
class <- read_csv("https://docs.google.com/spreadsheets/d/e/2PACX-1vQfwR6DBW5Qv6O5aEBFJl4V8itnlDxFEc1e_-fOAtBMDxXx1GeEGb8o5VSgi33oTYqeFhVCevGGbG5y/pub?gid=0&single=true&output=csv")

## Rows: 38 Columns: 3
## ── Column specification ────────────────────────────────────────────────────────
## Delimiter: ","
## chr (3): Name, Princess, Ice cream
## 
## ℹ Use `spec()` to retrieve the full column specification for this data.
## ℹ Specify the column types or set `show_col_types = FALSE` to quiet this message.

# peek at the data
class

## # A tibble: 38 × 3
##    Name    Princess                      `Ice cream`      
##    <chr>   <chr>                         <chr>            
##  1 Adam O  Cinderella                    Cookie Dough     
##  2 Adam C  Mulan                         Cookie Dough     
##  3 Amaris  Tiana (Princess and the Frog) Coffee           
##  4 Andrew  Mulan                         Chocolate        
##  5 Athena  Belle (Beauty and the Beast)  Cookies and Cream
##  6 Aurora  Aurora (Sleeping Beauty)      Cookie Dough     
##  7 Avery   Mulan                         Cookie Dough     
##  8 Brady   Jasmine (Aladdin)             Cookies and Cream
##  9 Carolyn Merida (Brave)                Vanilla          
## 10 Casey   Mulan                         Cookie Dough     
## # … with 28 more rows
…
